{"zhuyejiekou": [

{"name":"首页推荐","url":"http://35ys.cc/api.php/v1.vod"},
{"name":"迪迪影院","url":"http://dd88.icu:6080/xgapp.php/v2/"},
{"name":"魅酷影视","url":"http://mkk.gotka.top/api.php/v1.vod"},
{"name":"琅琊影视","url":"http://fgyuu.top/lehailb_api.php/v1.vod"},
{"name":"爱电影视","url":"http://123.250idc.com/mogai_api.php/v1.vod"},
{"name":"每天影视","url":"http://yidayy.top/lehailb_api.php/v1.vod"},
{"name":"飓风影视","url": "http://jf.35ys.cc/lehailb_api.php/v1.vod"},
{"name":"饭后电影","url":"http://yinliub.cn/lvdou_api.php/v1.vod"},
{"name":"美剧范源","url":"http://ttzmz.net/api.php/v1.vod"},
{"name":"美剧虫源","url":"https://meijuchong.com/api.php/v1.vod"},
{"name":"超速资源","url":"https://vip.wscyun.com/api.php/v1.vod"},
{"name":"乐云影视","url":"https://www.leyun.tv/api.php/v1.vod"},
{"name":"余生影视","url":"http://yu.cuicanys.cn/lvdou_api.php/v1.vod"},
{"name":"兔子影视","url":"http://cj.huimaojia.com:12345/mogai_api.php/v1.vod"},
{"name":"团夕影视","url":"https://www.kan365.xyz/api.php/app/"},
{"name":"次元动漫","url":"http://81.68.211.181/lvdou_api.php/v1.vod"},
{"name":"小白动漫","url":"http://121.62.60.222:13579/xiaobai_api.php/v1.vod"},
{"name":"魔改动漫","url":"http://121.62.60.222:20222/mogai_api.php/v1.vod"},
{"name":"追剧影院","url":"http://82.157.98.129/lvdou_api.php/v1.vod"},
{"name":"月儿影视","url":"https://yue52.xyz/api.php/v1.vod"},
{"name":"极酷影视","url":"https://jiku.vip/mogai_api.php/v1.vod"},
{"name":"橘子影视","url":"http://jz.juzidy.vip/mogai_api.php/v1.vod"},
{"name":"玖肆资源","url":"http://android.jiusi.vip/mogai_api.php/v1.vod"},
{"name":"懒猫影视","url":"https://lanmao.lanmaoymw.cn/api.php/v1.vod"},
{"name":"影视猫源","url":"https://vip.wscyun.com/api.php/v1.vod"},
{"name":"秒播影视","url":"https://www.kan365.xyz/api.php/app/"},
{"name":"开尔影院","url":"https://appx.uy07.com/api.php/v1.vod"},
{"name":"万能影院","url":"http://app.wnvod.net/lvdou_api.php/v1.vod"},
{"name":"粉象视界","url":"http://42.157.129.15:34444/lvdou_api.php/v1.vod"},
{"name":"玖肆资源","url":"https://ccbug.cc/lvdou_api.php/v1.vod"},
{"name":"超人影视","url":"http://chaorenbb.com/api.php/v1.vod"},
{"name":"雪人影视","url":"http://qqtvapp.com/xgapp.php/v1/"},
{"name":"三六五看","url":"https://www.kan365.xyz/api.php/app/"},
{"name":"250影视","url":"http://123.250idc.com/mogai_api.php/v1.vod"},
{"name":"360红豆源","url":"https://www.kan365.xyz/api.php/app/"},
{"name":"巫巫电视迷","url":"http://35ys.cc/api.php/v1.vod"},
{"name":"极酷视频","url":"https://jiku.vip/mogai_api.php/v1.vod"},
{"name":"淘剧社","url":"https://app.shuhai99.com/api.php/v1.vod"},
{"name":"暖光影视","url":"https://app.bl210.com/api.php/v1.vod"},
{"name":"独播社","url":"http://35ys.cc/api.php/v1.vod"},
{"name":"痞痞狸","url":"http://app.ppli.xyz/api.php/v1.vod"},
{"name":"月儿dou","url":"http://123.250idc.com/mogai_api.php/v1.vod"},
{"name":"月儿影视","url":"https://yue52.xyz/api.php/v1.vod"},
{"name":"青豆","url":"http://150.158.133.36:9904/qingdoujiekou.php/v1.vod"},
{"name":"WSC","url":"https://vip.wscyun.com/api.php/v1.vod"},
{"name":"开尔影院","url":"https://appx.uy07.com/api.php/v1.vod"},
{"name":"筋斗云影视","url":"https://tv.jindcloud.com/api.php/v1.vod"},
{"name":"皮皮动漫","url":"http://dm.muying.me/mogai_api.php/v1.vod"},
{"name":"猪猪影院","url":"http://app.2zdyy.com/api.php/v1.vod"},
{"name":"熊猫动漫","url":"http://dm.muying.me/mogai_api.php/v1.vod"},
{"name":"懒猫影视","url":"https://lanmao.lanmaoymw.cn/api.php/v1.vod"},
{"name":"嗷呜视频","url":"http://www.cx99999.cn/lvdou_api.php/v1.vod"},
{"name":"影视猫","url":"https://vip.wscyun.com/api.php/v1.vod"},
{"name":"钟特影视","url":"https://app.zteys.com/api.php/v1.vod"},
{"name":"tvip","url":"http://app.tvip.cc/api.php/v1.vod"},
{"name":"迪迪影院","url":"http://dd88.icu:6080/xgapp.php/v2/"},
{"name":"快云影音","url":"https://www.kuaiyunyy.com/api.php/app/"},
{"name":"DC影视","url":"http://chaorenbb.com/api.php/v1.vod"},
{"name":"爱酷影视","url":"https://www.zhanlangbu.com/ruifenglb_api.php/v1.vod"},
{"name":"段友影视","url":"http://121.204.249.135:4433/ruifenglb_api.php/v1.vod"},
{"name":"段友2影视","url":"https://shangjihuoke.com/api.php/tv.vod"},
{"name":"粉象视界","url":"http://42.157.129.15:34444/lvdou_api.php/v1.vod"},
{"name":"零刻影院","url":"https://ys.ling00.cn/api.php/v1.vod"},
{"name":"麻瓜视频","url":"http://aliyun.k8aa.com/mogai_api.php/v1.vod"},
{"name":"美剧虫","url":"https://meijuchong.com/api.php/v1.vod"},
{"name":"益达影院","url":"http://luobu.yss6080.com/mogai_api.php/v1.vod"},
{"name":"影视大全","url":"http://app.269w.com/api.php/v1.vod"},
{"name":"优视影视","url":"http://app.ysys.asia/lvdou_api.php/v1.vod"},
{"name":"影阅阁","url":"http://221.236.18.12:665/api.php/v1.vod"},
{"name":"CC影视","url":"https://ccbug.cc/lvdou_api.php/v1.vod"},
{"name":"艾特影视","url":"https://www.aitee.cc/api.php/v1.vod"},
{"name":"百淘影视","url":"http://ys.58g8.com/lvdou_api.php/v1.vod"},
{"name":"看看视频","url":"http://888.ccboke.top/ruifenglb_api.php/v1.vod"},
{"name":"免费影视","url":"http://111.229.120.180:88/lvdou_api.php/v1.vod"},
{"name":"美剧范","url":"http://ttzmz.net/api.php/v1.vod"},
{"name":"双鹿影院","url":"http://cr.slidc.top/mubai_api.php/m2.vod"},
{"name":"熊猫视频","url":"http://anegh.com/lvdou_api.php/v1.vod"},
{"name":"牛马TV","url":"http://niumatv.com/api.php/app/"},
{"name":"555电影","url":"https://555dy3.com/api.php/app/"},
{"name":"万能影院","url":"http://app.wnvod.net/lvdou_api.php/v1.vod"},
{"name":"饭后电影","url":"http://yinliub.cn/lvdou_api.php/v1.vod"},
{"name":"躺平影视","url":"http://www.lltpys.com/api.php/app/"},
{"name":"余生影视","url":"http://yu.cuicanys.cn/lvdou_api.php/v1.vod"},
{"name":"飓风影视","url": "http://jf.35ys.cc/lehailb_api.php/v1.vod"},
{"name":"琅琊影视","url": "http://fgyuu.top/lehailb_api.php/v1.vod"},
{"name":"天空影视","url":"https://www.tkys.tv/xgapp.php/v2/"},
{"name":"看365","url":"https://www.kan365.xyz/api.php/app/"},
{"name":"QC影视","url":"https://www.qcsvip.com/mogai_api.php/v1.vod"},
{"name":"U5影视","url":"https://appx.uy07.com/api.php/v1.vod"},
{"name":"黄河影视","url":"http://i.ledu8.cn/api.php/v1.vod"},
{"name":"冷视TV","url":"https://len.tv/api.php/v1.vod"},
{"name":"橘子影视","url":"http://jz.juzidy.vip/mogai_api.php/v1.vod"},
{"name":"看剧吧","url":"http://app.ishen520.com/api.php/v1.vod"},
{"name":"913e影视","url":"http://www.913e.net/xgapp.php/v1/"},
{"name":"海胆影视","url":"http://xf123.cc/api.php/app/"},
{"name":"暖光影视","url":"https://app.bl210.com/api.php/v1.vod"}
],
"caijizhan": [
{"name":"酷云七七","url":"http://api.kunyu77.com/api.php"},
{"name":"极速影视","url":"http://www.zycaiji.net:7788/api.php"},
{"name":"江北资源","url":"https://gfzycj.hnmj.vip/api.php"},
{"name":"狐狸资源","url":"https://api.foxzyapi.com/api.php"},
{"name":"猫咪影视","url":"http://zy.xiaomaomi.cc/api.php"},
{"name":"嘛哩动漫","url":"https://malimali3.com/api.php"},
{"name":"八零九零","url":"http://zy.yilans.net:8090/api.php"},
{"name":"看猫影视","url":"http://124.222.83.15:88/api.php"},
{"name":"星一影视","url":"https://gcku.suboyun.vip/api.php"},
{"name":"量子资源","url":"http://cj.lziapi.com/api.php"},
{"name":"麒麟资源","url":"http://www.qilinzyz.com/api.php"},
{"name":"速播资源","url":"http://gcku.suboyun.vip/api.php"},
{"name":"晓成影视","url":"http://cj.cygc.xyz/api.php"},
{"name":"追剧影视","url":"http://gc.zhuijuba.vip/api.php"},
{"name":"南国影视","url":"http://api.nguonphim.tv/api.php"},
{"name":"天堂资源","url":"http://vipmv.cc/api.php"},
{"name":"淘鸭影视","url":"https://so2.cc/api.php"},
{"name":"高清影视","url":"http://shdmv.com/api.php"},
{"name":"段友影视","url":"http://shangjihuoke.com/api.php"},
{"name":"奥特曼源","url":"https://aotemanzy.com/api.php"},
{"name":"樱花影视","url":"https://yhzy.cc/api.php"},
{"name":"畅视影视","url":"http://app.reboju.net/api.php"},
{"name":"酷云77","url":"http://api.kunyu77.com/api.php"},
{"name":"推荐采集","url":"http://101.34.7.151:600/api.php"},
{"name":"剧好看资源","url":"https://www.juhaokan.cc/api.php"},
{"name":"8090资源","url":"http://zy.yilans.net:8090/api.php"},
{"name":"天堂资源","url":"http://vipmv.cc/api.php"},
{"name":"M3U8.TV资源","url":"http://www.zycaiji.net:7788/api.php"},
{"name":"麒麟资源","url":"http://www.qilinzyz.com/api.php"},
{"name":"诺讯资源","url":"http://caiji.nxflv.com/api.php"},
{"name":"江北资源","url":"https://gfzycj.hnmj.vip/api.php"},
{"name":"wabc(腾讯直采)","url":"https://wabc.ml/mao/1.php"},
{"name":"看猫","url":"http://124.222.83.15:88/api.php"},
{"name":"忆梦","url":"http://anltv.cn/api.php"},
{"name":"土狗官采","url":"http://vip-02.tgzy.cc/api.php"},
{"name":"极速官采","url":"http://gc.zhuijuba.vip/api.php"},
{"name":"晓成云","url":"http://cj.cygc.xyz/api.php"},
{"name":"首涂官采","url":"http://zy.ishoutu.com/api.php"},
{"name":"奥特曼资源","url":"https://aotemanzy.com/api.php"},
{"name":"松鼠资源","url":"https://m3u8.songshuzy.com/api.php"},
{"name":"猫眼资源","url":"http://maoyanapi.com/api.php"},
{"name":"FOX资源","url":"https://api.foxzyapi.com/api.php"},
{"name":"量子资源","url":"http://cj.lziapi.com/api.php"},
{"name":"神速资源","url":"https://api.sszyapi.com/api.php"},
{"name":"番茄资源","url":"http://api.fqzy.cc/api.php"},
{"name":"卧龙资源","url":"https://collect.wolongzyw.com/api.php"},
{"name":"红牛资源","url":"https://www.hongniuzy2.com/api.php"},
{"name":"北斗星资源","url":"https://m3u8.bdxzyapi.com/api.php"},
{"name":"樱花资源","url":"https://m3u8.apiyhzy.com/api.php"},
{"name":"想看资源","url":"https://m3u8.xiangkanapi.com/api.php"},
{"name":"酷点资源","url":"https://kudianzy.com/api.php"},
{"name":"速更资源","url":"https://sugengzy.cn/api.php"},
{"name":"闪电资源","url":"http://sdzyapi.com/api.php"},
{"name":"光速资源","url":"https://api.guangsuapi.com/api.php"},
{"name":"新浪资源","url":"http://api.xinlangapi.com/xinlangapi.php"},
{"name":"鱼乐资源","url":"https://api.ylzy1.com/api.php"},
{"name":"快播资源","url":"http://www.kuaibozy.com/api.php"},
{"name":"百度资源","url":"https://api.apibdzy.com/api.php"},
{"name":"无尽资源2","url":"https://wuzy9.com/api.php"},
{"name":"无尽资源","url":"https://wujinzy.com/api.php"},
{"name":"天空资源","url":"https://api.tiankongapi.com/api.php"},
{"name":"南国影源","url":"http://api.nguonphim.tv/api.php"},
{"name":"淘剧鸭","url":"https://so2.cc/api.php"},
{"name":"293影视","url":"http://293x.yhzy.xyz/mv/api.php"},
{"name":"土狗Autue","url":"http://vip-08.tgzy.cc/api.php"},
{"name":"极速蓝光","url":"http://hs.zhuijuba.vip/api.php"},
{"name":"U酷资源","url":"https://api.ukuapi.com/api.php"},
{"name":"八戒资源","url":"https://www.bajiezy.xyz/api.php"},
{"name":"唐人资源","url":"https://tangrenzyz.com/api.php"},
{"name":"789盘","url":"https://www.rrvipw.com/api.php"},
{"name":"旋风云","url":"http://appimg.ssxmall.cn/api.php"},
{"name":"皮荼熊TV","url":"https://www.psinu.com/api.php"},
{"name":"哆咪动漫","url":"http://www.dmdm2020.com/api.php"},
{"name":"考拉TV","url":"https://ikaola.tv/api.php"},
{"name":"荔枝影视","url":"http://www.zjys.vip/api.php"},
{"name":"段友影视","url":"http://shangjihuoke.com/api.php"},
{"name":"一点影视","url":"https://m3u8.movurl.xyz/api.php"},
{"name":"旧梦影视","url":"https://mac.qd234.cn/api.php"},
{"name":"思古影院","url":"https://www.siguyy.net/api.php"},
{"name":"天天看","url":"https://www.ttky8.com/api.php"},
{"name":"每天看看","url":"http://47.113.126.237:1234/api.php"},
{"name":"一拳动漫","url":"http://47.97.68.224/api.php"},
{"name":"饭团影视","url":"http://television.wkfile.com/api.php"},
{"name":"畅视影视","url":"http://app.reboju.net/api.php"},
{"name":"人人资源","url":"http://www.rrzyw.cc/api.php"},
{"name":"猪猪影院","url":"https://www.2zdyy.com/api.php"},
{"name":"初恋云影视","url":"https://video.xuanqi.pro/api.php"},
{"name":"小猫咪","url":"http://zy.xiaomaomi.cc/api.php"},
{"name":"酷点影视","url":"http://ys.kudian6.com/api.php"},
{"name":"艾思影院","url":"https://www.aitee.cc/api.php"},
{"name":"千寻时光","url":"http://wy.dqyhg.cn/api.php"},
{"name":"兔子窝","url":"http://cj.huimaojia.com:12345/api.php"},
{"name":"哇可可影视","url":"https://www.zwcoco.com/api.php"},
{"name":"共青春","url":"https://gqcyy.com/api.php"},
{"name":"酷猫影视","url":"https://www.pgcms10.com/api.php"},
{"name":"胖猫影视","url":"http://www.pangmaotv.com/api.php"},
{"name":"嘛哩嘛哩","url":"https://malimali3.com/api.php"},
{"name":"77电影","url":"https://www.77diany.com/api.php"},
{"name":"TVB云播","url":"http://www.tvyb02.com/api.php"},
{"name":"饭后电影","url":"http://yinliub.cn/api.php"},
{"name":"飞扬TV","url":"http://diancj.zhenfy.cn/api.php/Chengcheng/vod/"},
{"name":"极品影院","url":"http://293x.yhzy.xyz/mv/api.php/Chengcheng/vod/"},
{"name":"小南TV","url":"http://n293.ngys.xyz/mv/api.php/Chengcheng/vod/"},
{"name":"金叶影视","url":"http://r.zjj.life:88/mv/api.php/Chengcheng/vod/"},
{"name":"369影视","url":"http://8.142.23.147:555/api.php/Chengcheng/vod/"},
{"name":"独优影院","url":"http://121.205.88.71:218/api.php/Chengcheng/vod/"},
{"name":"影视阁","url":"http://216.98.10.85/api.php/iptv/vod/"},
{"name":"小熊猫","url":"http://tv2.hetaoys.vip/api.php/iptv/vod/"},
{"name":"天空TV","url":"http://tv.tkys.tv/api.php/iptv/vod/"},
{"name":"山楂影视","url":"http://dy6.dcd1.cn/api.php/iptv/vod/"},
{"name":"柠檬影视","url":"http://106.12.113.90:7575/api.php/iptv/vod/"},
{"name":"芒讯影视","url":"http://www.hdyangtv.com/api.php/iptv/vod/"},
{"name":"米莱影视","url":"http://42.51.37.161:2346/api.php/iptv/vod/"},
{"name":"麦看影视","url":"http://tv.shenaitv.com/api.php/iptv/vod/"},
{"name":"荔枝TV","url":"http://api.zjys.vip/api.php/iptv/vod/"},
{"name":"盒子TV","url":"http://eh.tvzy.cc/api.php/iptv/vod/"},
{"name":"聚多视频","url":"http://jdys.weetai.cn/api.php/iptv/vod/"},
{"name":"黑龙影视","url":"http://vip.ji-ding-he.site/api.php/iptv/vod/"},
{"name":"2号","url":"http://phoebe.cf/api.php/iptv/vod/"},
{"name":"AXXTV","url":"http://tv2.aixixi.vip/api.php/iptv/vod/"},
{"name":"CV影视","url":"http://www.cccvvv.top/api.php/iptv/vod/"},
{"name":"非凡影院","url":"http://cms.feifan12.xyz/api.php/iptv/vod/"},
{"name":"贵宾影院","url":"https://vipdytv.com/api.php/iptv/vod/"},
{"name":"看365","url":"https://www.kan365.xyz/api.php"}
],



"lunbo": [
{"name": "斗鱼","fanye": "aHR0cHM6Ly93d3cuZG91eXUuY29tL2dhcGkvcmtjL2RpcmVjdG9yeS9taXhMaXN0LzJfMjA4Lw==","qianzhui": "aHR0cDovL2VwZy4xMTIxMTQueHl6L2RvdXl1Lw=="},
{"name": "虎牙","fanye": "aHR0cHM6Ly93d3cuaHV5YS5jb20vY2FjaGUucGhwP209TGl2ZUxpc3QmZG89Z2V0TGl2ZUxpc3RCeVBhZ2UmZ2FtZUlkPTIxMzUmdGFnQWxsPTAmY2FsbGJhY2s9Z2V0TGl2ZUxpc3RKc29ucENhbGxiYWNrJnBhZ2U9","qianzhui": "aHR0cHM6Ly9lcGcuMTEyMTE0Lnh5ei9odXlhLw=="},
{"name": "哔哩","fanye": "aHR0cHM6Ly9hcGkubGl2ZS5iaWxpYmlsaS5jb20veGxpdmUvd2ViLWludGVyZmFjZS92MS9zZWNvbmQvZ2V0TGlzdD9wbGF0Zm9ybT13ZWImcGFyZW50X2FyZWFfaWQ9MTAmYXJlYV9pZD0zMyZzb3J0X3R5cGU9b25saW5lJnBhZ2U9","qianzhui": "aHR0cHM6Ly9lcGcuMTEyMTE0Lnh5ei9iaWxpLw=="}],
"zhujiexi": "https://jx.blbo.cc:4433/?url=#https://jhpc.manduhu.com/j1217.php?url=#http://115.231.218.97:1314/api/?key=RwOSJUQyDGtD5K2qJY&url=#http://api.vip123kan.vip/?url=#https://json.iku.cool/api/?key=3qTKEDXBaIaOiGjYwX&url=",
"beiyongjiexi": "https://nbjx.vip/?url=#https://www.pangujiexi.com/pangu/?url=#https://www.nxflv.com/?url=#http://api.diliktv.xyz/vip/jx.php?url=#http://m2090.com/?url=#https://jx.blbo.cc:4433/?url=#https://jx.parwix.com:4433/player/?url=",
"dianshizhibo": "http://tyzx.weetai.cn/bbtv/zhibo.txt",
"tiyuzhibo": "https://m.zhibo8.net",
"reci": "https://v.sogou.com",
"guolvdizhi": "player.css#url=#cnzz.com#51.la",
"wuqu": "aHR0cDovL3d3dy5kanV1LmNvbQ==",
"Home": {
"dy": {
"class": "全部$&class=#喜剧$&class=喜剧#爱情$&class=爱情#动作$&class=动作#枪战$&class=枪战#犯罪$&class=犯罪#惊悚$&class=惊悚#恐怖$&class=恐怖#悬疑$&class=悬疑#动画$&class=动画#家庭$&class=家庭#奇幻$&class=奇幻#魔幻$&class=魔幻#科幻$&class=科幻#战争$&class=战争#青春$&class=青春#剧情$&class=剧情#西部$&class=西部#纪录$&class=记录#音乐$&class=音乐#歌舞$&class=歌舞#运动$&class=运动#历史$&class=历史#武侠$&class=武侠#冒险$&class=冒险#伦理$&class=伦理#传记$&class=传记",
"area": "全部$&area=#内地$&area=内地#香港$&area=香港#美国$&area=美国#欧洲$&area=欧洲#韩国$&area=韩国#日本$&area=日本#泰国$&area=泰国#印度$&area=印度#其它$&area=其它",
"year": "全部$&lang=&year=#2022$&lang=&year=2022#2021$&lang=&year=2021#2020$&lang=&year=2020#2019$&lang=&year=2019#2018$&lang=&year=2018#2017$&lang=&year=2017#2016-2011$&lang=&year=2016#2010-2000$&lang=&year=2010#90年代$&lang=&year=90#80年代$&lang=&year=80#更早$&lang=&year=70"
},
"dsj": {
"class": "全部$&class=#古装$&class=古装#言情$&class=言情#武侠$&class=武侠#偶像$&class=偶像#家庭$&class=家庭#青春$&class=青春#都市$&class=都市#喜剧$&class=喜剧#战争$&class=战争#军旅$&class=军旅#谍战$&class=谍战#悬疑$&class=悬疑#罪案$&class=罪案#穿越$&class=穿越#宫廷$&class=宫廷#历史$&class=历史#神话$&class=神话#科幻$&class=科幻#年代$&class=年代#农村$&class=农村#商战$&class=商战#剧情$&class=剧情#奇幻$&class=奇幻",
"area": "全部$&area=#内地$&area=内地#香港$&area=香港#美国$&area=美国#英国$&area=英国#韩国$&area=韩国#日本$&area=日本#泰国$&area=泰国#台湾$&area=台湾#其它$&area=其它",
"year": "全部$&lang=&year=#2022$&lang=&year=2022#2021$&lang=&year=2021#2020$&lang=&year=2020#2019$&lang=&year=2019#2018$&lang=&year=2018#2017$&lang=&year=2017#2016-2011$&lang=&year=2016#2010-2000$&lang=&year=2010#90年代$&lang=&year=90#80年代$&lang=&year=80#更早$&lang=&year=70"
},
"zy": {
"class": "全部$&class=#表演$&class=表演#播报$&class=播报#访谈$&class=访谈#体验$&class=体验#养成$&class=养成#游戏$&class=游戏#亲子$&class=亲子#美食$&class=美食#情感$&class=情感#选秀$&class=选秀#益智$&class=益智#晚会$&class=晚会#音乐$&class=音乐#文化$&class=文化#喜剧$&class=喜剧#曲艺$&class=曲艺#职场$&class=职场#脱口秀$&class=脱口秀#真人秀$&class=真人秀#竞技$&class=竞技#体育$&class=体育#萌宠$&class=萌宠",
"area": "全部$&area=#内地$&area=内地#香港$&area=香港#美国$&area=美国#韩国$&area=韩国#日本$&area=日本#台湾$&area=台湾",
"year": "全部$&lang=&year=#2022$&lang=&year=2022#2021$&lang=&year=2021#2020$&lang=&year=2020#2019$&lang=&year=2019#2018$&lang=&year=2018#2017$&lang=&year=2017#2016-2011$&lang=&year=2016#2010-2000$&lang=&year=2010#90年代$&lang=&year=90#80年代$&lang=&year=80#更早$&lang=&year=70"
},
"dm": {
"class": "全部$&class=#搞笑$&class=搞笑#番剧$&class=番剧#国创$&class=国创#大电影$&class=大电影#热血$&class=热血#催泪$&class=催泪#治愈$&class=治愈#励志$&class=励志#机战$&class=机战#战斗$&class=战斗#恋爱$&class=恋爱#科幻$&class=科幻#奇幻$&class=奇幻#魔幻$&class=魔幻#推理$&class=推理#校园$&class=校园#日常$&class=日常#经典$&class=经典#历史$&class=历史#美食$&class=美食#职场$&class=职场#偶像$&class=偶像#泡面$&class=泡面#冒险$&class=冒险#竞技$&class=竞技#武侠$&class=武侠#玄幻$&class=玄幻",
"area": "全部$&area=#内地$&area=内地#日本$&area=日本#欧美$&area=欧美#其它$&area=其它",
"year": "全部$&lang=&year=#2022$&lang=&year=2022#2021$&lang=&year=2021#2020$&lang=&year=2020#2019$&lang=&year=2019#2018$&lang=&year=2018#2017$&lang=&year=2017#2016-2011$&lang=&year=2016#2010-2000$&lang=&year=2010#90年代$&lang=&year=90#80年代$&lang=&year=80#更早$&lang=&year=70"
}
},



"zidingyi": [

{"name": "会员影视",
"url": "http://www.vip1280.net",
"tihuan": "cnzz.com",
"User": "空",
"fenlei": "电影$/frim/index1/page/#电视剧$/frim/index2/page/#港台剧$/frim/index3/page/#动作片$/frim/index6/page/#爱情片$/frim/index7/page/#科幻片$/frim/index8/page/#恐怖片$/frim/index9/page/#战争片$/frim/index10/page/#喜剧片$/frim/index11/page/#记录片$/frim/index12/page/#剧情片$/frim/index20/page/#动画片$/frim/index21/page/#欧美剧$/frim/index4/page/#日韩剧$/frim/index5/page/#泰剧$/frim/index22/page/",
"houzhui": ".html",
"shifouercijiequ": "0",
"jiequqian": "空",
"jiequhou": "空",
"jiequshuzuqian": "class=\"col-md-6 col-sm-4 col-xs-3\"",
"jiequshuzuhou": "</li>",
"tupianqian": "data-original=\"",
"tupianhou": "\"",
"biaotiqian": "title=\"",
"biaotihou": "\"",
"lianjieqian": "href=\"",
"lianjiehou": "\"",
"sousuoqian": "/index.php/ajax/suggest?mid=1&wd=",
"sousuohou": "&limit=500",
"sousuohouzhui": "/movie/index",
"ssmoshi": "0",
"sousuoshifouercijiequ": "0",
"jspic": "pic",
"jsname": "name",
"jsid": "id",
"ssjiequqian": "空",
"ssjiequhou": "空",
"ssjiequshuzuqian": "空",
"ssjiequshuzuhou": "空",
"sstupianqian": "空",
"sstupianhou": "空",
"ssbiaotiqian": "空",
"ssbiaotihou": "空",
"sslianjieqian": "空",
"sslianjiehou": "空",
"bfshifouercijiequ": "0",
"bfjiequqian": "空",
"bfjiequhou": "空",
"bfjiequshuzuqian": "class=\"stui-content__playlist clearfix\"",
"bfjiequshuzuhou": "</ul>",
"zhuangtaiqian": "class=\"pic-text text-right\">",
"zhuangtaihou": "",
"daoyanqian": "导演：</span>",
"daoyanhou": "</a>",
"zhuyanqian": "主演：</span>",
"zhuyanhou": "</a>",
"juqingqian": "class=\"detail-sketch\"",
"juqinghou": "</span>",
"bfyshifouercijiequ": "0",
"bfyjiequqian": "空",
"bfyjiequhou": "空",
"bfyjiequshuzuqian": "<li >",
"bfyjiequshuzuhou": "</li>",
"bfbiaotiqian": "\">",
"bfbiaotihou": "</a>",
"bflianjieqian": "href=\"",
"bflianjiehou": "\""},
{"name": "LIBVIO",
"url": "https://www.libvio.com",
"tihuan": "dd520.cc",
"User": "空",
"fenlei": "电视剧$/show/2--------#电影$/show/1--------#综艺$/show/3--------#动漫$/show/4--------#动作片$/show/1---动作-----#喜剧片$/show/1---喜剧-----#爱情片$/show/1---爱情-----#科幻片$/show/1---科幻-----#奇幻片$/show/1---奇幻-----#恐怖片$/show/1---恐怖-----#剧情片$/show/1---剧情-----#战争片$/show/1---战争-----#冒险片$/show/1---冒险-----#国产剧$/show/2-中国
大陆-------#台剧$/show/2-中国台湾-------#港剧$/show/2-中国香港-------#韩剧$/show/2-韩国-------#日剧$/show/2-日本-------#美剧$/show/2-美国-------#英剧$/show/2-英国-------",
"houzhui": "---.html",
"shifouercijiequ": "0",
"jiequqian": "空",
"jiequhou": "空",
"jiequshuzuqian": "data",
"jiequshuzuhou": "</h4>",
"tupianqian": "original=\"",
"tupianhou": "\"",
"biaotiqian": "title=\"",
"biaotihou": "\"",
"lianjieqian": "href=\"",
"lianjiehou": "\"",
"sousuoqian": "/index.php/ajax/suggest?mid=1&wd=",
"sousuohou": "&limit=500",
"sousuohouzhui": "/detail/",
"ssmoshi": "0",
"sousuoshifouercijiequ": "0",
"jspic": "pic",
"jsname": "name",
"jsid": "id",
"ssjiequqian": "空",
"ssjiequhou": "空",
"ssjiequshuzuqian": "空",
"ssjiequshuzuhou": "空",
"sstupianqian": "空",
"sstupianhou": "空",
"ssbiaotiqian": "空",
"ssbiaotihou": "空",
"sslianjieqian": "空",
"sslianjiehou": "空",
"bfshifouercijiequ": "0",
"bfjiequqian": "空",
"bfjiequhou": "空",
"bfjiequshuzuqian": "class=\"stui-content__playlist",
"bfjiequshuzuhou": "</ul>",
"zhuangtaiqian": "class=\"data\">总集数：",
"zhuangtaihou": "</p>",
"daoyanqian": "class=\"data\">类型：",
"daoyanhou": "</p>",
"zhuyanqian": "class=\"data\">主演：",
"zhuyanhou": "</p>",
"juqingqian": "class=\"detail-content\"",
"juqinghou": "</span>",
"bfyshifouercijiequ": "0",
"bfyjiequqian": "空",
"bfyjiequhou": "空",
"bfyjiequshuzuqian": "<a",
"bfyjiequshuzuhou": "/a>",
"bfbiaotiqian": ">",
"bfbiaotihou": "<",
"bflianjieqian": "href=\"",
"bflianjiehou": "\""},
{"name": "周末电影",
"url": "https://www.zzzlike.vip",
"tihuan": "cnzz.com",
"User": "空",
"fenlei": "电视剧$/vodtype/2-#电影$/vodtype/1-#综艺$/vodtype/3-#动漫$/vodtype/4-",
"houzhui": ".html",
"shifouercijiequ": "0",
"jiequqian": "空",
"jiequhou": "空",
"jiequshuzuqian": "class=\"stui-vodlist__box",
"jiequshuzuhou": "</li>",
"tupianqian": "data-original=\"",
"tupianhou": "\"",
"biaotiqian": "title=\"",
"biaotihou": "\"",
"lianjieqian": "href=\"",
"lianjiehou": "\"",
"sousuoqian": "/vodsearch/-------------.html?wd=",
"sousuohou": "",
"sousuohouzhui": "/voddetail/",
"ssmoshi": "1",
"sousuoshifouercijiequ": "0",
"jspic": "空",
"jsname": "空",
"jsid": "空",
"ssjiequqian": "空",
"ssjiequhou": "空",
"ssjiequshuzuqian": "class=\"thumb",
"ssjiequshuzuhou": "</li>",
"sstupianqian": "data-original=\"",
"sstupianhou": "\"",
"ssbiaotiqian": "title=\"",
"ssbiaotihou": "\"",
"sslianjieqian": "href=\"",
"sslianjiehou": "\"",
"bfshifouercijiequ": "0",
"bfjiequqian": "空",
"bfjiequhou": "空",
"bfjiequshuzuqian": "class=\"stui-content__playlist clearfix",
"bfjiequshuzuhou": "</ul>",
"zhuangtaiqian": "class=\"pic-text text-right\">",
"zhuangtaihou": "</span>",
"daoyanqian": "导演：",
"daoyanhou": "</p>",
"zhuyanqian": "主演：",
"zhuyanhou": "</p>",
"juqingqian": "style=\"display: none;\">",
"juqinghou": "</span>",
"bfyshifouercijiequ": "0",
"bfyjiequqian": "空",
"bfyjiequhou": "空",
"bfyjiequshuzuqian": "<li",
"bfyjiequshuzuhou": "</li>",
"bfbiaotiqian": "\">",
"bfbiaotihou": "</a>",
"bflianjieqian": "href=\"",
"bflianjiehou": "\""},
{"name": "乐猪影视",
"url": "http://www.lezhutv.com",
"tihuan": "cnzz.com",
"User": "空",
"fenlei": "电视剧$/type/2-#电影$/type/1-#综艺$/type/3-#动漫$/type/4-#韩剧$/type/14-#美剧$/type/15-#公众号白侃天下$/type/16-",
"houzhui": ".html",
"shifouercijiequ": "0",
"jiequqian": "空",
"jiequhou": "空",
"jiequshuzuqian": "class=\"vbox\"",
"jiequshuzuhou": "</a>",
"tupianqian": "data-original=\"",
"tupianhou": "\"",
"biaotiqian": "title=\"",
"biaotihou": "\"",
"lianjieqian": "href=\"",
"lianjiehou": "\"",
"sousuoqian": "/search-pg-1-wd-",
"sousuohou": ".html",
"sousuohouzhui": "/detail/",
"ssmoshi": "1",
"sousuoshifouercijiequ": "0",
"jspic": "空",
"jsname": "空",
"jsid": "空",
"ssjiequqian": "空",
"ssjiequhou": "空",
"ssjiequshuzuqian": "class=\"vbox\"",
"ssjiequshuzuhou": "</a>",
"sstupianqian": "data-original=\"",
"sstupianhou": "\"",
"ssbiaotiqian": "title=\"",
"ssbiaotihou": "\"",
"sslianjieqian": "href=\"",
"sslianjiehou": "\"",
"bfshifouercijiequ": "0",
"bfjiequqian": "空",
"bfjiequhou": "空",
"bfjiequshuzuqian": "class=\"list_block show\"",
"bfjiequshuzuhou": "</ul>",
"zhuangtaiqian": "class=\"yac\">",
"zhuangtaihou": "</p>",
"daoyanqian": "导演：</span>",
"daoyanhou": "</p>",
"zhuyanqian": "主演：</span>",
"zhuyanhou": "</p>",
"juqingqian": "class=\"tbox_js\">",
"juqinghou": "</div>",
"bfyshifouercijiequ": "0",
"bfyjiequqian": "空",
"bfyjiequhou": "空",
"bfyjiequshuzuqian": "<li>",
"bfyjiequshuzuhou": "</li>",
"bfbiaotiqian": "\">",
"bfbiaotihou": "</a>",
"bflianjieqian": "href=\"",
"bflianjiehou": "\""},
{"name": "厂长资源-蓝光",
"url": "https://qianoo.cn",
"tihuan": "aliyundrive",
"User": "空",
"fenlei": "电视剧$/dsj/page/#电影$/zuixindianying/page/#番剧$/fanju/page/#动漫$/dm/page/#国产剧$/gcj/page/#美剧$/meijutt/page/#韩剧$/hanjutv/page/",
"houzhui": "",
"shifouercijiequ": "0",
"jiequqian": "空",
"jiequhou": "空",
"jiequshuzuqian": "<li>",
"jiequshuzuhou": "</span>",
"tupianqian": "original=\"",
"tupianhou": "\"",
"biaotiqian": "alt=\"",
"biaotihou": "\"",
"lianjieqian": "qianoo.cn",
"lianjiehou": "\"",
"sousuoqian": "/xssearch?q=",
"sousuohou": "",
"sousuohouzhui": "/movie/",
"ssmoshi": "1",
"sousuoshifouercijiequ": "0",
"jspic": "pic",
"jsname": "name",
"jsid": "id",
"ssjiequqian": "空",
"ssjiequhou": "空",
"ssjiequshuzuqian": "<li>",
"ssjiequshuzuhou": "</span>",
"sstupianqian": "original=\"",
"sstupianhou": "\"",
"ssbiaotiqian": "alt=\"",
"ssbiaotihou": "\"",
"sslianjieqian": "qianoo.cn",
"sslianjiehou": "\"",
"bfshifouercijiequ": "0",
"bfjiequqian": "空",
"bfjiequhou": "空",
"bfjiequshuzuqian": "class=\"paly_list",
"bfjiequshuzuhou": "</div>",
"zhuangtaiqian": "上映：<span>",
"zhuangtaihou": "</span>",
"daoyanqian": "<li>导演：",
"daoyanhou": "</li>",
"zhuyanqian": "<li>主演：",
"zhuyanhou": "</li>",
"juqingqian": "class=\"yp_context\">",
"juqinghou": "</div>",
"bfyshifouercijiequ": "0",
"bfyjiequqian": "空",
"bfyjiequhou": "空",
"bfyjiequshuzuqian": "<a",
"bfyjiequshuzuhou": "/a>",
"bfbiaotiqian": ">",
"bfbiaotihou": "<",
"bflianjieqian": "qianoo.cn",
"bflianjiehou": "\""},
{"name": "555电影",
"url": "https://www.555dy.fun",
"tihuan": "cnzz.com",
"User": "User-Agent:Dart/2.14 (dart:io)",
"fenlei": "电视剧$/vodtype/2-#电影$/vodtype/1-#综艺纪录片$/vodtype/3-#动漫$/vodtype/4-#港台剧$/vodtype/15-#日韩剧$/vodtype/44-#欧美剧$/vodtype/45-",
"houzhui": ".html",
"shifouercijiequ": "1",
"jiequqian": "class=\"myui-vodlist clearfix",
"jiequhou": "</ul>",
"jiequshuzuqian": "class=\"myui-vodlist__thumb",
"jiequshuzuhou": "</span>",
"tupianqian": "original=\"",
"tupianhou": "\"",
"biaotiqian": "title=\"",
"biaotihou": "\"",
"lianjieqian": "href=\"",
"lianjiehou": "\"",
"sousuoqian": "/index.php/ajax/suggest?mid=1&wd=",
"sousuohou": "&limit=50",
"sousuohouzhui": "/voddetail/",
"ssmoshi": "0",
"sousuoshifouercijiequ": "0",
"jspic": "pic",
"jsname": "name",
"jsid": "id",
"ssjiequqian": "空",
"ssjiequhou": "空",
"ssjiequshuzuqian": "空",
"ssjiequshuzuhou": "空",
"sstupianqian": "空",
"sstupianhou": "空",
"ssbiaotiqian": "空",
"ssbiaotihou": "空",
"sslianjieqian": "空",
"sslianjiehou": "空",
"bfshifouercijiequ": "0",
"bfjiequqian": "空",
"bfjiequhou": "空",
"bfjiequshuzuqian": "class=\"myui-content__list",
"bfjiequshuzuhou": "</ul>",
"zhuangtaiqian": "更新：</span>",
"zhuangtaihou": "</p>",
"daoyanqian": "导演：</span>",
"daoyanhou": "</p>",
"zhuyanqian": "主演：</span>",
"zhuyanhou": "</p>",
"juqingqian": "class=\"data\" style=\"display: none;\">",
"juqinghou": "</span>",
"bfyshifouercijiequ": "0",
"bfyjiequqian": "空",
"bfyjiequhou": "空",
"bfyjiequshuzuqian": "<a",
"bfyjiequshuzuhou": "/a>",
"bfbiaotiqian": ">",
"bfbiaotihou": "<",
"bflianjieqian": "href=\"",
"bflianjiehou": "\""},
{"name": "9亿资源",
"tihuan": "cnzz.com",
"url": "https://www.9eii.com",
"fenlei": "热播剧集$/vodshow/zuijinrebodianshiju/page/#热播电影$/vodshow/zuijinrebodianying/page/#综艺$/vodshow/zongyi/page/#动漫$/vodshow/dongman/page/#国语配音电影$/vodshow/gypy/page/#国语配音剧集$/vodshow/guoyupeiyinhanju/page/#国语配音动漫$/vodshow/guoyupeiyindongman/page/#国产剧$/vodshow/lianxuju/area/中国大陆/page/#港剧$/vodshow/li
anxuju/area/香港/page/#韩剧$/vodshow/lianxuju/area/韩国/page/#美剧$/vodshow/lianxuju/area/美国/page/#泰剧$/vodshow/lianxuju/area/泰国/page/#日剧$/vodshow/lianxuju/area/日本/page/#英剧$/vodshow/lianxuju/area/英国/page/",
"houzhui": ".html",
"shifouercijiequ": "0",
"jiequqian": "空",
"jiequhou": "空",
"jiequshuzuqian": "class=\"myui-vodlist__box\"",
"jiequshuzuhou": "</span>",
"tupianqian": "original=\"",
"tupianhou": "\"",
"biaotiqian": "title=\"",
"biaotihou": "\"",
"lianjieqian": "href=\"",
"lianjiehou": "\"",
"sousuoqian": "/index.php/ajax/suggest?mid=1&wd=",
"sousuohou": "&limit=500",
"sousuohouzhui": "/voddetail/",
"ssmoshi": "0",
"sousuoshifouercijiequ": "0",
"jspic": "pic",
"jsname": "name",
"jsid": "id",
"ssjiequqian": "空",
"ssjiequhou": "空",
"ssjiequshuzuqian": "空",
"ssjiequshuzuhou": "空",
"sstupianqian": "空",
"sstupianhou": "空",
"ssbiaotiqian": "空",
"ssbiaotihou": "空",
"sslianjieqian": "空",
"sslianjiehou": "空",
"bfshifouercijiequ": "0",
"bfjiequqian": "空",
"bfjiequhou": "空",
"bfjiequshuzuqian": "id=\"playlist",
"bfjiequshuzuhou": "</ul>",
"zhuangtaiqian": "更新：</span>",
"zhuangtaihou": "</p >",
"daoyanqian": "导演：</span>",
"daoyanhou": "</p >",
"zhuyanqian": "主演：</span>",
"zhuyanhou": "</p >",
"juqingqian": "简介：</span>",
"juqinghou": "<a",
"bfyshifouercijiequ": "0",
"bfyjiequqian": "空",
"bfyjiequhou": "空",
"bfyjiequshuzuqian": "<a",
"bfyjiequshuzuhou": "/a>",
"bfbiaotiqian": ">",
"bfbiaotihou": "<",
"bflianjieqian": "href=\"",
"bflianjiehou": "\""},
{"name": "剧白白-蓝光",
"url": "https://www.jubaibai.cc",
"tihuan": "cnzz.com",
"User": "空",
"fenlei": "电视剧$/type/dianshiju-#电影$/type/dianying-#综艺$/type/zongyi-#动漫$/type/dongman-#纪录片$/type/jilupian-#动作片$/vodshow/id/dongzuopian/page/#喜剧片$/vodshow/id/xijupian/page/#爱情片$/vodshow/id/aiqingpian/page/#科幻片$/vodshow/id/kehuanpian/page/#恐怖片$/vodshow/id/kongbupian/page/#剧情片$/vodshow/id/juqingpian/pag
e/#战争片$/vodshow/id/zhanzhengpian/page/#国产剧$/vodshow/id/guochanju/page/#港台剧$/vodshow/id/gangtaiju/page/#日韩剧$/vodshow/id/rihanju/page/#欧美剧$/vodshow/id/oumeiju/page/#其他剧$/vodshow/id/qitaju/page/",
"houzhui": ".html",
"shifouercijiequ": "0",
"jiequqian": "空",
"jiequhou": "空",
"jiequshuzuqian": "class=\"stui-vodlist__box\"",
"jiequshuzuhou": "</a>",
"tupianqian": "original=\"",
"tupianhou": "\"",
"biaotiqian": "title=\"",
"biaotihou": "\"",
"lianjieqian": "href=\"",
"lianjiehou": "\"",
"sousuoqian": "/index.php/ajax/suggest?mid=1&wd=",
"sousuohou": "&limit=500",
"sousuohouzhui": "/vod/",
"ssmoshi": "0",
"sousuoshifouercijiequ": "0",
"jspic": "pic",
"jsname": "name",
"jsid": "id",
"ssjiequqian": "空",
"ssjiequhou": "空",
"ssjiequshuzuqian": "空",
"ssjiequshuzuhou": "空",
"sstupianqian": "空",
"sstupianhou": "空",
"ssbiaotiqian": "空",
"ssbiaotihou": "空",
"sslianjieqian": "空",
"sslianjiehou": "空",
"bfshifouercijiequ": "0",
"bfjiequqian": "空",
"bfjiequhou": "空",
"bfjiequshuzuqian": "class=\"stui-content__playlist sort-list",
"bfjiequshuzuhou": "</ul>",
"zhuangtaiqian": "class=\"data hidden-xs\">类型：",
"zhuangtaihou": "</p>",
"daoyanqian": "class=\"data\">导演：",
"daoyanhou": "</p>",
"zhuyanqian": "class=\"data\">主演：",
"zhuyanhou": "</p>",
"juqingqian": "style=\"display: none;\">",
"juqinghou": "</span>",
"bfyshifouercijiequ": "0",
"bfyjiequqian": "空",
"bfyjiequhou": "空",
"bfyjiequshuzuqian": "<a",
"bfyjiequshuzuhou": "/a>",
"bfbiaotiqian": ">",
"bfbiaotihou": "<",
"bflianjieqian": "href=\"",
"bflianjiehou": "\""},
{"name": "天空资源",
"url": "https://www.tkys.tv",
"tihuan": "cnzz.com",
"fenlei": "电影$/vodtype/1-#综艺$/vodtype/3-#动漫$/vodtype/4-#国产剧$/vodshow/area/内地/id/2/page/#港剧$/vodshow/area/香港/id/2/page/#韩剧$/vodshow/area/韩国/id/2/page/#美剧$/vodshow/area/美国/id/2/page/#泰剧$/vodshow/area/泰国/id/2/page/#日剧$/vodshow/area/日本/id/2/page/#台剧$/vodshow/area/台湾/id/2/page/#英剧$/vodshow/area/英国/id/2/p
age/",
"houzhui": ".html",
"shifouercijiequ": "0",
"jiequqian": "空",
"jiequhou": "空",
//公众号白侃天.下专.用
"jiequshuzuqian": "class=\"col-lg-8",
"jiequshuzuhou": "</span>",
"tupianqian": "original=\"",
"tupianhou": "\"",
"biaotiqian": "title=\"",
"biaotihou": "\"",
"lianjieqian": "href=\"",
"lianjiehou": "\"",
"sousuoqian": "/index.php/ajax/suggest?mid=1&wd=",
"sousuohou": "&limit=500",
"sousuohouzhui": "/voddetail/",
"ssmoshi": "0",
"sousuoshifouercijiequ": "0",
"jspic": "pic",
"jsname": "name",
"jsid": "id",
"ssjiequqian": "空",
"ssjiequhou": "空",
"ssjiequshuzuqian": "空",
"ssjiequshuzuhou": "空",
"sstupianqian": "空",
"sstupianhou": "空",
"ssbiaotiqian": "空",
"ssbiaotihou": "空",
"sslianjieqian": "空",
"sslianjiehou": "空",
"bfshifouercijiequ": "0",
"bfjiequqian": "空",
"bfjiequhou": "空",
"bfjiequshuzuqian": "id=\"playlist",
"bfjiequshuzuhou": "</ul>",
"zhuangtaiqian": "备注：</span>",
"zhuangtaihou": "</div>",
"daoyanqian": "导演：</span>",
"daoyanhou": "</div>",
"zhuyanqian": "主演：</span>",
"zhuyanhou": "</div>",
"juqingqian": "class=\"video-info-item video-info-content vod_content\">",
"juqinghou": "</span>",
"bfyshifouercijiequ": "0",
"bfyjiequqian": "空",
"bfyjiequhou": "空",
"bfyjiequshuzuqian": "<a",
"bfyjiequshuzuhou": "/a>",
"bfbiaotiqian": ">",
"bfbiaotihou": "<",
"bflianjieqian": "href=\"",
"bflianjiehou": "\""},
{"name": "饭团影院",
"url": "https://fantuan.tv",
"tihuan": "cnzz.com",
"User": "User-Agent:Dart/2.14 (dart:io)",
"fenlei": "电视剧$/vodtype/2-#电影$/vodtype/1-#综艺$/vodtype/3-#韩国综艺$/vodtype/31-#动漫$/vodtype/4-#国产剧$/vodtype/13-#港剧$/vodtype/14-#韩剧$/vodtype/15-#美剧$/vodtype/16-#日剧$/vodtype/24-#泰剧$/vodtype/25-#台剧$/vodtype/26-#英剧$/vodtype/27-#其他剧$/vodtype/28-",
"houzhui": ".html",
"shifouercijiequ": "1",
"jiequqian": "class=\"myui-vodlist clearfix",
"jiequhou": "</ul>",
"jiequshuzuqian": "class=\"myui-vodlist__thumb",
"jiequshuzuhou": "</span>",
"tupianqian": "original=\"",
//公众号白侃天.下专.用
"tupianhou": "\"",
"biaotiqian": "title=\"",
"biaotihou": "\"",
"lianjieqian": "href=\"",
"lianjiehou": "\"",
"sousuoqian": "/index.php/ajax/suggest?mid=1&wd=",
"sousuohou": "&limit=50",
"sousuohouzhui": "/voddetail/",
"ssmoshi": "0",
"sousuoshifouercijiequ": "0",
"jspic": "pic",
"jsname": "name",
"jsid": "id",
"ssjiequqian": "空",
"ssjiequhou": "空",
"ssjiequshuzuqian": "空",
"ssjiequshuzuhou": "空",
"sstupianqian": "空",
"sstupianhou": "空",
"ssbiaotiqian": "空",
"ssbiaotihou": "空",
"sslianjieqian": "空",
"sslianjiehou": "空",
"bfshifouercijiequ": "0",
"bfjiequqian": "空",
"bfjiequhou": "空",
"bfjiequshuzuqian": "class=\"myui-content__list",
"bfjiequshuzuhou": "</ul>",
"zhuangtaiqian": "更新：</span>",
"zhuangtaihou": "</p>",
"daoyanqian": "导演：</span>",
"daoyanhou": "</p>",
"zhuyanqian": "主演：</span>",
"zhuyanhou": "</p>",
"juqingqian": "class=\"data\" style=\"display: none;\">",
"juqinghou": "</span>",
"bfyshifouercijiequ": "0",
"bfyjiequqian": "空",
"bfyjiequhou": "空",
"bfyjiequshuzuqian": "<a",
"bfyjiequshuzuhou": "/a>",
"bfbiaotiqian": ">",
"bfbiaotihou": "<",
"bflianjieqian": "href=\"",
"bflianjiehou": "\""},
{"name": "影视工厂",
"url": "http://www.ysgc.cc",
"User": "空",
"fenlei": "电视剧$/vodshow/2--------#电影$/vodshow/1--------#综艺$/vodshow/3--------#动漫$/vodshow/4--------#番剧$/vodshow/26--------#国产剧$/vodshow/13--------#港台剧$/vodshow/14--------#日韩剧$/vodshow/15--------#欧美剧$/vodshow/16--------#动作片$/vodshow/1---动作-----#喜剧片$/vodshow/1---喜剧-----#爱情片$/vodshow/1---爱情-----#科幻片$/v
odshow/1---科幻-----#恐怖片$/vodshow/1---恐怖-----#剧情片$/vodshow/1---剧情-----#战争片$/vodshow/1---战争-----#武侠片$/vodshow/1---武侠-----",
"houzhui": "---.html",
"shifouercijiequ": "0",
"jiequqian": "空",
//公众号白侃天.下专.用
"jiequhou": "空",
"jiequshuzuqian": "class=\"myui-vodlist__box\"",
"jiequshuzuhou": "</span>",
"tupianqian": "original=\"",
"tupianhou": "\"",
"biaotiqian": "title=\"",
"biaotihou": "\"",
"lianjieqian": "href=\"",
"lianjiehou": "\"",
"sousuoqian": "/index.php/ajax/suggest?mid=1&wd=",
"sousuohou": "&limit=500",
"sousuohouzhui": "/voddetail/",
"ssmoshi": "0",
"sousuoshifouercijiequ": "0",
"jspic": "pic",
"jsname": "name",
"jsid": "id",
"ssjiequqian": "空",
"ssjiequhou": "空",
"ssjiequshuzuqian": "空",
"ssjiequshuzuhou": "空",
"sstupianqian": "空",
"sstupianhou": "空",
"ssbiaotiqian": "空",
"ssbiaotihou": "空",
"sslianjieqian": "空",
"sslianjiehou": "空",
"bfshifouercijiequ": "0",
"bfjiequqian": "空",
"bfjiequhou": "空",
"bfjiequshuzuqian": "id=\"playlist",
"bfjiequshuzuhou": "</ul>",
"zhuangtaiqian": "class=\"otherbox\">",
"zhuangtaihou": "</p>",
"daoyanqian": "导演：</span>",
"daoyanhou": "</p>",
"zhuyanqian": "主演：</span>",
"zhuyanhou": "</p>",
"juqingqian": "<span class=\"data\"",
"juqinghou": "</span>",
"bfyshifouercijiequ": "0",
"bfyjiequqian": "空",
"bfyjiequhou": "空",
"bfyjiequshuzuqian": "<a",
"bfyjiequshuzuhou": "/a>",
"bfbiaotiqian": ">",
"bfbiaotihou": "<",
"bflianjieqian": "href=\"",
"bflianjiehou": "\""},
{"name": "火火影视",
"url": "https://www.huohuo99.com",
"tihuan": "",
"User": "空",
//公众号白侃天.下专.用
"fenlei":"动作片$/vodtype/6-#喜剧片$/vodtype/7-#爱情片$/vodtype/8-#科幻片$/vodtype/9-#恐怖片$/vodtype/10-#剧情片$/vodtype/11-#战争片$/vodtype/12-#惊悚片$/vodtype20-#悬疑片$vodtype/23-#动画片$/vodtype/24-#国产剧$/vodtype/13-#港台剧$/vodtype/14-#日韩剧$/vodtype15-#欧美剧$vodtype/16-#番剧$/vodtype/31-#综艺$/vodtype/4-#记录片$/vodtype/5-",
"houzhui": ".html",
"shifouercijiequ": "0",
"jiequqian": "空",
"jiequhou": "空",
"jiequshuzuqian": "class=\"hl-list-item hl",
"jiequshuzuhou": "</div>",
"tupianqian": "data-original=\"",
"tupianhou": "\"",
"biaotiqian": "title=\"",
"biaotihou": "\"",
"lianjieqian": "href=\"",
"lianjiehou": "\"",
"sousuoqian":"/index.php/ajax/suggest?mid=1&wd=",
"sousuohou": "&limit=500",
"sousuohouzhui": "/voddetail/",
"ssmoshi": "0",
"sousuoshifouercijiequ": "0",
"jspic": "pic",
"jsname": "name",
"jsid": "id",
"ssjiequqian": "空",
"ssjiequhou": "空",
"ssjiequshuzuqian": "空",
"ssjiequshuzuhou": "空",
"sstupianqian": "空",
"sstupianhou": "空",

"ssbiaotiqian": "空",
"ssbiaotihou": "空",
"sslianjieqian": "空",
"sslianjiehou": "空",
"bfshifouercijiequ": "0",
"bfjiequqian": "空",
"bfjiequhou": "空",
"bfjiequshuzuqian": " id=\"hl-plays-list",
"bfjiequshuzuhou": "</ul>",
"zhuangtaiqian": "状态：</em>",
"zhuangtaihou": "</a>",
"daoyanqian": "导演：</em>",
"daoyanhou": "</a>",
"zhuyanqian": "主演：</em>",
"zhuyanhou": "</a>",
"juqingqian": "简介：</em>",
"juqinghou": "</li>",
"bfyshifouercijiequ": "0",
"bfyjiequqian": "空",
"bfyjiequhou": "空",
"bfyjiequshuzuqian": "<a",
"bfyjiequshuzuhou": "/a>",
"bfbiaotiqian": ">",
"bfbiaotihou": "<",
"bflianjieqian": "href=\"",
"bflianjiehou": "\""},
{"name": "达达龟",
"url": "http://www.dadagui.com",
"tihuan": "cnzz.com",
"User": "空",
"fenlei": "电视剧$/vodtype/2-#电影$/vodtype/1-#综艺$/vodtype/3-#动漫$/vodtype/4-",
"houzhui": ".html",
"shifouercijiequ": "0",
"jiequqian": "空",
"jiequhou": "空",
"jiequshuzuqian": "class=\"stui-vodlist__box",
"jiequshuzuhou": "</li>",
"tupianqian": "data-original=\"",
"tupianhou": "\"",
"biaotiqian": "title=\"",
"biaotihou": "\"",
"lianjieqian": "href=\"",
"lianjiehou": "\"",
"sousuoqian": "/vodsearch/-------------.html?wd=",
"sousuohou": "",
"sousuohouzhui": "/voddetail/",
"ssmoshi": "1",
"sousuoshifouercijiequ": "0",
"jspic": "空",
"jsname": "空",
"jsid": "空",
"ssjiequqian": "空",
"ssjiequhou": "空",
"ssjiequshuzuqian": "class=\"thumb",
"ssjiequshuzuhou": "</li>",
"sstupianqian": "data-original=\"",
"sstupianhou": "\"",
"ssbiaotiqian": "title=\"",
"ssbiaotihou": "\"",
"sslianjieqian": "href=\"",
"sslianjiehou": "\"",
"bfshifouercijiequ": "0",
"bfjiequqian": "空",
"bfjiequhou": "空",
"bfjiequshuzuqian": "class=\"stui-content__playlist clearfix",
"bfjiequshuzuhou": "</ul>",
"zhuangtaiqian": "类型：",
"zhuangtaihou": "</p>",
"daoyanqian": "导演：",
"daoyanhou": "</p >",
"zhuyanqian": "主演：",
"zhuyanhou": "</p >",
"juqingqian": "style=\"display: none;\">",
"juqinghou": "</span>",
"bfyshifouercijiequ": "0",
"bfyjiequqian": "空","bfyjiequhou": "空",
"bfyjiequshuzuqian": "<a",
"bfyjiequshuzuhou": "/a>",
"bfbiaotiqian": ">",
"bfbiaotihou": "<",
"bflianjieqian": "href=\"",
"bflianjiehou": "\""},
{"name": "黑洞",
"url": "https://www.nulltm.com",
"tihuan": "cnzz.com",
"User": "空",
"fenlei": "电视剧$/vodtype/2-#电影$/vodtype/1-#综艺$/vodtype/3-#动漫$/vodtype/4-",
"houzhui": ".html",
"shifouercijiequ": "0",
"jiequqian": "空",
"jiequhou": "空",
"jiequshuzuqian": "class=\"stui-vodlist__box",
"jiequshuzuhou": "</li>",
"tupianqian": "data-original=\"",
"tupianhou": "\"",
"biaotiqian": "title=\"",
"biaotihou": "\"",
"lianjieqian": "href=\"",
"lianjiehou": "\"",
"sousuoqian": "/vodsearch/",
"sousuohou": "----------1---.html",
"sousuohouzhui": "/voddetail/",
"ssmoshi": "1",
"sousuoshifouercijiequ": "0",
"jspic": "空",
"jsname": "空",
"jsid": "空",
"ssjiequqian": "空",
"ssjiequhou": "空",
"ssjiequshuzuqian": "class=\"stui-vodlist__box",
"ssjiequshuzuhou": "</li>",
"sstupianqian": "data-original=\"",
"sstupianhou": "\"",
"ssbiaotiqian": "title=\"",
"ssbiaotihou": "\"",
"sslianjieqian": "href=\"",
"sslianjiehou": "\"",
"bfshifouercijiequ": "0",
"bfjiequqian": "空",
"bfjiequhou": "空",
"bfjiequshuzuqian": "class=\"stui-content__playlist clearfix",
"bfjiequshuzuhou": "</ul>",
"zhuangtaiqian": "更新：",
"zhuangtaihou": "</p>",
"daoyanqian": "导演：",
"daoyanhou": "</p>",
"zhuyanqian": "主演：",
"zhuyanhou": "</p>",
"juqingqian": "简介：",
"juqinghou": "</p>",
"bfyshifouercijiequ": "0",
"bfyjiequqian": "空",
"bfyjiequhou": "空",
"bfyjiequshuzuqian": "<li",
"bfyjiequshuzuhou": "</li>",
"bfbiaotiqian": "\">",
"bfbiaotihou": "</a>",
"bflianjieqian": "href=\"",
"bflianjiehou": "\""}
]
}

