[
  {
    "id": 1,
    "key": "随缘电影(聚)",
    "name": "随缘电影(聚)",
    "api": "https://baobei666.com/inc/api.php",
    "jiexiUrl": "https://jx.parwix.com:4433/player/?url=",
    "group": "#聚合",
    "isActive": true,
    "status": "可用",
    "reverseOrder": false
  },
  {
    "id": 2,
    "key": "胖猫影视(聚)",
    "name": "胖猫影视(聚)",
    "api": "https://www.pangmaotv.com/api.php/provide/vod/at/xml/",
    "group": "#聚合",
    "isActive": true,
    "status": "可用",
    "reverseOrder": false
  },
  {
    "id": 3,
    "key": "MBO影视(聚)",
    "name": "MBO影视(聚)",
    "api": "https://www.mbomovie.com/api.php/provide/vod/at/xml/",
    "group": "#聚合",
    "isActive": true,
    "status": "可用",
    "reverseOrder": false
  },
  {
    "id": 4,
    "key": "快看客栈(聚)",
    "name": "快看客栈(聚)",
    "api": "https://www.vp1127.com/api.php/provide/vod/at/xml/",
    "group": "#聚合",
    "isActive": true,
    "status": "可用",
    "reverseOrder": false
  },
  {
    "id": 5,
    "key": "比邻影院(聚)",
    "name": "比邻影院(聚)",
    "api": "http://0hzy.cn:9990/api.php/provide/vod/at/xml/",
    "group": "#聚合",
    "isActive": true,
    "status": "可用",
    "reverseOrder": false
  },
  {
    "id": 6,
    "key": "速影(聚)",
    "name": "速影(聚)",
    "api": "https://速影128.xyz/inc/api.php",
    "group": "#聚合",
    "isActive": true,
    "status": "可用",
    "reverseOrder": false
  },
  {
    "id": 7,
    "key": "贵宾影院(聚)",
    "name": "贵宾影院(聚)",
    "api": "http://vipdytv.com/api.php/provide/vod/at/xml/",
    "group": "#聚合",
    "isActive": true,
    "status": "可用",
    "reverseOrder": false
  },
  {
    "id": 8,
    "key": "热剧天堂(聚)",
    "name": "热剧天堂(聚)",
    "api": "http://175.178.7.35:2020/api.php/provide/vod/at/xml/",
    "group": "#聚合",
    "isActive": true,
    "status": "可用",
    "reverseOrder": false
  },
  {
    "id": 9,
    "key": "天星影视(聚)",
    "name": "天星影视(聚)",
    "api": "http://www.0009988.com/api.php/provide/vod/at/xml/",
    "group": "#聚合",
    "isActive": true,
    "status": "可用",
    "reverseOrder": false
  },
  {
    "id": 10,
    "key": "醉璃笙TV(聚)",
    "name": "醉璃笙TV(聚)",
    "api": "http://web.xhdj.vip/api.php/provide/vod/at/xml/",
    "group": "#聚合",
    "isActive": true,
    "status": "可用",
    "reverseOrder": false
  },
  {
    "id": 11,
    "key": "阿里影视(聚)",
    "name": "阿里影视(聚)",
    "api": "http://aliys.cn:90/api.php/provide/vod/at/xml/",
    "group": "#聚合",
    "isActive": true,
    "status": "可用",
    "reverseOrder": false
  },
  {
    "id": 12,
    "key": "百淘影视(聚)",
    "name": "百淘影视(聚)",
    "api": "http://ys.58g8.com/api.php/provide/vod/at/xml/",
    "group": "#聚合",
    "isActive": true,
    "status": "可用",
    "reverseOrder": false
  },
  {
    "id": 13,
    "key": "黄河影视(聚)",
    "name": "黄河影视(聚)",
    "api": "http://i.ledu8.cn/api.php/provide/vod/at/xml/",
    "group": "#聚合",
    "isActive": true,
    "status": "可用",
    "reverseOrder": false
  },
  {
    "id": 14,
    "key": "海玉影视(聚)",
    "name": "海玉影视(聚)",
    "api": "http://tv2.hykjtv.cn/api.php/provide/vod/at/xml/",
    "group": "#聚合",
    "isActive": true,
    "status": "可用",
    "reverseOrder": false
  },
  {
    "id": 15,
    "key": "铭轩影视(聚)",
    "name": "铭轩影视(聚)",
    "api": "http://lz0716.com/api.php/provide/vod/at/xml/",
    "group": "#聚合",
    "isActive": true,
    "status": "可用",
    "reverseOrder": false
  },
  {
    "id": 16,
    "key": "蒲公英视频(聚)",
    "name": "蒲公英视频(聚)",
    "api": "http://www.pgy1.top/api.php/provide/vod/at/xml/",
    "group": "#聚合",
    "isActive": true,
    "status": "可用",
    "reverseOrder": false
  },
  {
    "id": 17,
    "key": "速博影院(聚)",
    "name": "速博影院(聚)",
    "api": "http://www.subolg.com/api.php/provide/vod/at/xml/",
    "group": "#聚合",
    "isActive": true,
    "status": "可用",
    "reverseOrder": false
  },
  {
    "id": 18,
    "key": "蜗牛动漫(聚)",
    "name": "蜗牛动漫(聚)",
    "api": "http://woniudm.woniu.cyou:20000/api.php/provide/vod/at/xml/",
    "group": "#聚合",
    "isActive": true,
    "status": "可用",
    "reverseOrder": false
  },
  {
    "id": 19,
    "key": "小鸟动漫(聚)",
    "name": "小鸟动漫(聚)",
    "api": "http://xydm.baicai.buzz/api.php/provide/vod/at/xml/",
    "group": "#聚合",
    "isActive": true,
    "status": "可用",
    "reverseOrder": false
  },
  {
    "id": 20,
    "key": "影视大全2(聚)",
    "name": "影视大全2(聚)",
    "api": "https://xc.xixi2yy.xyz/api.php/provide/vod/at/xml/",
    "group": "#聚合",
    "isActive": true,
    "status": "可用",
    "reverseOrder": false
  },
  {
    "id": 21,
    "key": "幻风影视(聚)",
    "name": "幻风影视(聚)",
    "api": "http://vip857.top/api.php/provide/vod/at/xml/",
    "group": "#聚合",
    "isActive": true,
    "status": "可用",
    "reverseOrder": false
  },
  {
    "id": 22,
    "key": "九狐影视(聚)",
    "name": "九狐影视(聚)",
    "api": "http://lb.gbxy.net.cn/api.php/provide/vod/at/xml/",
    "group": "#聚合",
    "isActive": true,
    "status": "可用",
    "reverseOrder": false
  },
  {
    "id": 23,
    "key": "电视家(聚)",
    "name": "电视家(聚)",
    "api": "http://mytvhome.xyz/api.php/provide/vod/at/xml/",
    "group": "#聚合",
    "isActive": true,
    "status": "可用",
    "reverseOrder": false
  },
  {
    "id": 24,
    "key": "4K狗(聚)",
    "name": "4K狗(聚)",
    "api": "http://4kdog.tk/api.php/provide/vod/at/xml/",
    "group": "#聚合",
    "isActive": true,
    "status": "可用",
    "reverseOrder": false
  },
  {
    "id": 25,
    "key": "MX影院2(聚)",
    "name": "MX影院2(聚)",
    "api": "http://49.235.107.145:81/api.php/provide/vod/at/xml/",
    "group": "#聚合",
    "isActive": true,
    "status": "可用",
    "reverseOrder": false
  },
  {
    "id": 26,
    "key": "MX影院(聚)",
    "name": "MX影院(聚)",
    "api": "http://rctv.top/api.php/provide/vod/at/xml/",
    "group": "#聚合",
    "isActive": true,
    "status": "可用",
    "reverseOrder": false
  },
  {
    "id": 27,
    "key": "火星影视(聚)",
    "name": "火星影视(聚)",
    "api": "http://47.102.85.40/api.php/provide/vod/at/xml/",
    "group": "#聚合",
    "isActive": true,
    "status": "可用",
    "reverseOrder": false
  },
  {
    "id": 28,
    "key": "私人影视(聚)",
    "name": "私人影视(聚)",
    "api": "http://204240.top:8899/api.php/provide/vod/at/xml/",
    "group": "#聚合",
    "isActive": true,
    "status": "可用",
    "reverseOrder": false
  },
  {
    "id": 29,
    "key": "香瓜影视(聚)",
    "name": "香瓜影视(聚)",
    "api": "http://v.xgvod.top/api.php/provide/vod/at/xml/",
    "group": "#聚合",
    "isActive": true,
    "status": "可用",
    "reverseOrder": false
  },
  {
    "id": 30,
    "key": "友人屋视界(聚)",
    "name": "友人屋视界(聚)",
    "api": "https://gb.gx916.top/api.php/provide/vod/at/xml/",
    "group": "#聚合",
    "isActive": true,
    "status": "可用",
    "reverseOrder": false
  },
  {
    "id": 31,
    "key": "日诚影院(聚)",
    "name": "日诚影院(聚)",
    "api": "http://tv.rcz168.com/api.php/provide/vod/at/xml/",
    "group": "#聚合",
    "isActive": true,
    "status": "可用",
    "reverseOrder": false
  },
  {
    "id": 32,
    "key": "创艺影视(聚)",
    "name": "创艺影视(聚)",
    "api": "https://www.30dian.cn/api.php/provide/vod/at/xml/",
    "group": "#聚合",
    "isActive": true,
    "status": "可用",
    "reverseOrder": false
  },
  {
    "id": 33,
    "key": "CV影视(聚)",
    "name": "CV影视(聚)",
    "api": "https://www.cccvvv.top/api.php/provide/vod/at/xml/",
    "group": "#聚合",
    "isActive": true,
    "status": "可用",
    "reverseOrder": false
  },
  {
    "id": 34,
    "key": "盘看看(聚)",
    "name": "盘看看(聚)",
    "api": "http://tvcaiji.pankk.cn/api.php/provide/vod/at/xml/",
    "group": "#聚合",
    "isActive": true,
    "status": "可用",
    "reverseOrder": false
  },
  {
    "id": 35,
    "key": "雨哥哥影视(聚)",
    "name": "雨哥哥影视(聚)",
    "api": "http://cj.baozi66.top:66/api.php/provide/vod/at/xml/",
    "group": "#聚合",
    "isActive": true,
    "status": "可用",
    "reverseOrder": false
  },
  {
    "id": 36,
    "key": "氢视频(聚)",
    "name": "氢视频(聚)",
    "api": "http://www.h1080p.com/api.php/provide/vod/at/xml/",
    "group": "#聚合",
    "isActive": true,
    "status": "可用",
    "reverseOrder": false
  },
  {
    "id": 37,
    "key": "爱兜视频(聚)",
    "name": "爱兜视频(聚)",
    "api": "http://id190.tpddns.cn:81/mogai_api.php/provide/vod/at/xml/",
    "group": "#聚合",
    "isActive": true,
    "status": "可用",
    "reverseOrder": false
  },
  {
    "id": 38,
    "key": "影图(聚)",
    "name": "影图(聚)",
    "api": "https://cj.vodimg.top/api.php/provide/vod/at/xml/",
    "group": "#聚合",
    "isActive": true,
    "status": "可用",
    "reverseOrder": false
  },
  {
    "id": 39,
    "key": "益达影院(优)",
    "name": "益达影院(优)",
    "api": "http://luobu.yss6080.com/api.php/provide/vod/at/xml/",
    "group": "#优质资源",
    "isActive": true,
    "status": "可用",
    "reverseOrder": false
  },
  {
    "id": 40,
    "key": "粉象视界(优)",
    "name": "粉象视界(优)",
    "api": "http://42.157.129.15:34444/api.php/provide/vod/at/xml/",
    "group": "#优质资源",
    "isActive": true,
    "status": "可用",
    "reverseOrder": false
  },
  {
    "id": 41,
    "key": "影视大全(优)",
    "name": "影视大全(优)",
    "api": "https://app.okmedcos.com/api.php/provide/vod/at/xml/",
    "group": "#优质资源",
    "isActive": true,
    "status": "可用",
    "reverseOrder": false
  },
  {
    "id": 42,
    "key": "映迷(优)",
    "name": "映迷(优)",
    "api": "https://www.inmi.app/api.php/provide/vod/at/xml/",
    "group": "#优质资源",
    "isActive": true,
    "status": "可用",
    "reverseOrder": false
  },
  {
    "id": 43,
    "key": "西柚影视(优)",
    "name": "西柚影视(优)",
    "api": "http://43.135.75.180:9999/api.php/provide/vod/at/xml/",
    "group": "#优质资源",
    "isActive": true,
    "status": "可用",
    "reverseOrder": false
  },
  {
    "id": 44,
    "key": "土剧TV2(优)",
    "name": "土剧TV2(优)",
    "api": "http://tujutv.top/api.php/provide/vod/at/xml/",
    "group": "#优质资源",
    "isActive": true,
    "status": "可用",
    "reverseOrder": false
  },
  {
    "id": 45,
    "key": "老韩综(优)",
    "name": "老韩综(优)",
    "api": "http://zy.kmoonhh.com/api.php/provide/vod/at/xml/",
    "group": "#优质资源",
    "isActive": true,
    "status": "可用",
    "reverseOrder": false
  },
  {
    "id": 46,
    "key": "波比影视(优)",
    "name": "波比影视(优)",
    "api": "http://xxhhsc.top/api.php/provide/vod/at/xml/",
    "group": "#优质资源",
    "isActive": true,
    "status": "可用",
    "reverseOrder": false
  },
  {
    "id": 47,
    "key": "盒子视界(优)",
    "name": "盒子视界(优)",
    "api": "http://eh.tvzy.cc/api.php/provide/vod/at/xml/",
    "group": "#优质资源",
    "isActive": true,
    "status": "可用",
    "reverseOrder": false
  },
  {
    "id": 48,
    "key": "小南TV(优)",
    "name": "小南TV(优)",
    "api": "http://n293.ngys.xyz/mv/api.php/provide/vod/at/xml/",
    "group": "#优质资源",
    "isActive": true,
    "status": "可用",
    "reverseOrder": false
  },
  {
    "id": 49,
    "key": "北川影视(优)",
    "name": "北川影视(优)",
    "api": "https://www.bcwzg.com/api.php/provide/vod/at/xml/",
    "group": "#优质资源",
    "isActive": true,
    "status": "可用",
    "reverseOrder": false
  },
  {
    "id": 50,
    "key": "OmoFun(优)",
    "name": "OmoFun(优)",
    "api": "https://app.omofun.net/api.php/provide/vod/at/xml/",
    "group": "#优质资源",
    "isActive": true,
    "status": "可用",
    "reverseOrder": false
  },
  {
    "id": 51,
    "key": "龙腾资源(优)",
    "name": "龙腾资源(优)",
    "api": "http://175.178.7.35:2020/api.php/provide/vod/at/xml/",
    "group": "#优质资源",
    "isActive": true,
    "status": "可用",
    "reverseOrder": false
  },
  {
    "id": 52,
    "key": "爱酷影视(优)",
    "name": "爱酷影视(优)",
    "api": "https://www.zhanlangbu.com/api.php/provide/vod/at/xml/",
    "group": "#优质资源",
    "isActive": true,
    "status": "可用",
    "reverseOrder": false
  },
  {
    "id": 53,
    "key": "无尽资源(切)",
    "name": "无尽资源(切)",
    "api": "https://api.wujinapi.net/api.php/provide/vod/at/xml/",
    "group": "#切片资源",
    "isActive": true,
    "status": "可用",
    "reverseOrder": false
  },
  {
    "id": 54,
    "key": "八戒资源(切)",
    "name": "八戒资源(切)",
    "api": "http://cj.bajiecaiji.com/inc/api.php",
    "group": "#切片资源",
    "isActive": true,
    "status": "可用",
    "reverseOrder": false
  },
  {
    "id": 55,
    "key": "77韩剧(切)",
    "name": "77韩剧(切)",
    "api": "https://www.77hanju.com/api.php/provide/vod/at/xml/",
    "group": "#切片资源",
    "isActive": true,
    "status": "可用",
    "reverseOrder": false
  },
  {
    "id": 56,
    "key": "韩剧资源(切)",
    "name": "韩剧资源(切)",
    "api": "http://www.hanjuzy.com/inc/api.php",
    "group": "#切片资源",
    "isActive": true,
    "status": "可用",
    "reverseOrder": false
  },
  {
    "id": 57,
    "key": "蓝天资源(切)",
    "name": "蓝天资源(切)",
    "api": "https://api.ltzyapi.com/api.php/provide/vod/at/xml/",
    "group": "#切片资源",
    "isActive": true,
    "status": "可用",
    "reverseOrder": false
  },
  {
    "id": 58,
    "key": "非凡采集(官)",
    "name": "非凡采集(官)",
    "api": "http://cms.feifan12.xyz/api.php/provide/vod/at/xml/",
    "group": "#官方解析",
    "isActive": true,
    "status": "可用",
    "reverseOrder": false
  },
  {
    "key": "csp_xml___mac采集",
    "name": "🐝苹果采集",
    "type": 1,
    "api": "http://107.150.5.146:39000/maccms10-main/api.php/provide/vod/at/xml",
    "playUrl": "",
    "searchable": 1,
    "quickSearch": 1,
    "isActive": true,
    "group": "导入",
    "id": 59,
    "reverseOrder": false,
    "status": "可用"
  },
  {
    "key": "海外电影",
    "name": "海外电影(聚)",
    "type": 1,
    "api": "https://www.200121.com/api.php/provide/vod/at/xml/",
    "searchable": 1,
    "quickSearch": 1,
    "isActive": true,
    "group": "导入",
    "id": 60,
    "reverseOrder": false,
    "status": "可用"
  },
  {
    "key": "胖猫影视",
    "name": "胖猫影视(聚)",
    "type": 1,
    "api": "http://www.pangmaotv.com/api.php/provide/vod/at/xml/",
    "searchable": 1,
    "quickSearch": 1,
    "isActive": true,
    "group": "导入",
    "id": 61,
    "reverseOrder": false,
    "status": "可用"
  },
  {
    "key": "酷猫影视",
    "name": "酷猫影视(聚)",
    "type": 1,
    "api": "https://www.pgcms10.com/api.php/provide/vod/at/xml/",
    "searchable": 1,
    "quickSearch": 1,
    "isActive": true,
    "group": "导入",
    "id": 62,
    "reverseOrder": false,
    "status": "可用"
  },
  {
    "key": "MBO影视",
    "name": "MBO影视(聚)",
    "type": 0,
    "api": "https://www.mbomovie.com/api.php/provide/vod/at/xml/at/xml/",
    "searchable": 0,
    "quickSearch": 0,
    "isActive": true,
    "group": "导入",
    "id": 63,
    "reverseOrder": false,
    "status": "可用"
  },
  {
    "key": "千寻时光",
    "name": "千寻时光(聚)",
    "type": 1,
    "api": "http://wy.dqyhg.cn/api.php/provide/vod/at/xml/",
    "searchable": 1,
    "quickSearch": 1,
    "isActive": true,
    "group": "导入",
    "id": 64,
    "reverseOrder": false,
    "status": "可用"
  },
  {
    "key": "飘花电影",
    "name": "飘花电影(聚)",
    "type": 1,
    "api": "http://www.zzrhgg.com/api.php/provide/vod/at/xml/",
    "searchable": 1,
    "quickSearch": 1,
    "isActive": true,
    "group": "导入",
    "id": 65,
    "reverseOrder": false,
    "status": "可用"
  },
  {
    "key": "橘猫影视",
    "name": "橘猫影视(聚)",
    "type": 1,
    "api": "http://www.zitv.cc/api.php/provide/vod/at/xml/",
    "searchable": 1,
    "quickSearch": 1,
    "isActive": true,
    "group": "导入",
    "id": 66,
    "reverseOrder": false,
    "status": "可用"
  },
  {
    "key": "嗨哆咪影视",
    "name": "嗨哆咪影视(聚)",
    "type": 1,
    "api": "http://hdmys1.com/api.php/provide/vod/at/xml/",
    "searchable": 1,
    "quickSearch": 1,
    "isActive": true,
    "group": "导入",
    "id": 67,
    "reverseOrder": false,
    "status": "可用"
  },
  {
    "key": "39影视",
    "name": "39影视(聚)",
    "type": 1,
    "api": "https://www.39kan.com/api.php/provide/vod/at/xml/",
    "searchable": 1,
    "quickSearch": 1,
    "isActive": true,
    "group": "导入",
    "id": 68,
    "reverseOrder": false,
    "status": "可用"
  },
  {
    "key": "趣看",
    "name": "趣看(聚)",
    "type": 1,
    "api": "https://qkmp4.cn/api.php/provide/vod/at/xml/",
    "searchable": 0,
    "quickSearch": 0,
    "isActive": true,
    "group": "导入",
    "id": 69,
    "reverseOrder": false,
    "status": "可用"
  },
  {
    "key": "艾思影院",
    "name": "艾思影院(聚)",
    "type": 1,
    "api": "https://www.aitee.cc/api.php/provide/vod/at/xml/",
    "playUrl": "https://jx.zjmiao.com/?url=",
    "searchable": 1,
    "quickSearch": 1,
    "isActive": true,
    "group": "导入",
    "id": 70,
    "reverseOrder": false,
    "status": "可用"
  },
  {
    "key": "超高清影视",
    "name": "超高清影视(聚)",
    "type": 1,
    "api": "http://shdmv.com/api.php/provide/vod/at/xml/",
    "searchable": 1,
    "quickSearch": 1,
    "isActive": true,
    "group": "导入",
    "id": 71,
    "reverseOrder": false,
    "status": "可用"
  },
  {
    "key": "天天影视",
    "name": "天天影视(聚)",
    "type": 1,
    "api": "http://tt2022.ga/api.php/provide/vod/at/xml/",
    "searchable": 1,
    "quickSearch": 1,
    "isActive": true,
    "group": "导入",
    "id": 72,
    "reverseOrder": false,
    "status": "可用"
  },
  {
    "key": "乐活影视",
    "name": "乐活影视(优)",
    "type": 1,
    "api": "https://lehootv.com/api.php/provide/vod/at/xml/",
    "searchable": 1,
    "quickSearch": 1,
    "isActive": true,
    "group": "导入",
    "id": 73,
    "reverseOrder": false,
    "status": "可用"
  },
  {
    "key": "畅视影视",
    "name": "畅视影视(优)",
    "type": 1,
    "api": "http://app.reboju.net/api.php/provide/vod/at/xml/",
    "searchable": 1,
    "quickSearch": 1,
    "isActive": true,
    "group": "导入",
    "id": 74,
    "reverseOrder": false,
    "status": "可用"
  },
  {
    "key": "一拳动漫",
    "name": "一拳动漫(优)",
    "type": 1,
    "api": "http://47.97.68.224/api.php/provide/vod/at/xml/",
    "searchable": 1,
    "quickSearch": 1,
    "isActive": true,
    "group": "导入",
    "id": 75,
    "reverseOrder": false,
    "status": "可用"
  },
  {
    "key": "51看剧",
    "name": "51看剧(优)",
    "type": 1,
    "api": "http://www.51kanju.cn/api.php/provide/vod/at/xml/",
    "searchable": 1,
    "quickSearch": 1,
    "isActive": true,
    "group": "导入",
    "id": 76,
    "reverseOrder": false,
    "status": "可用"
  },
  {
    "key": "考拉TV",
    "name": "考拉TV(优)",
    "type": 1,
    "api": "https://ikaola.tv/api.php/provide/vod/at/xml/",
    "playUrl": "https://ikaola.tv/vwnet/dplayer/?url=",
    "searchable": 1,
    "quickSearch": 1,
    "isActive": true,
    "group": "导入",
    "id": 77,
    "reverseOrder": false,
    "status": "可用"
  },
  {
    "key": "XYUI",
    "name": "XYUI(优)",
    "type": 1,
    "api": "http://jx4.xyui.top:7001/api.php/provide/vod/at/xml/",
    "searchable": 1,
    "quickSearch": 1,
    "isActive": true,
    "group": "导入",
    "id": 78,
    "reverseOrder": false,
    "status": "可用"
  },
  {
    "key": "土剧TV",
    "name": "土剧TV(优)",
    "type": 1,
    "api": "http://tujutv.top/api.php/provide/vod/at/xml/",
    "searchable": 1,
    "quickSearch": 1,
    "isActive": true,
    "group": "导入",
    "id": 79,
    "reverseOrder": false,
    "status": "可用"
  },
  {
    "key": "奇粹影视",
    "name": "奇粹影视(优)",
    "type": 1,
    "api": "http://www.blssv.com/api.php/provide/vod/at/xml/",
    "searchable": 1,
    "quickSearch": 1,
    "isActive": true,
    "group": "导入",
    "id": 80,
    "reverseOrder": false,
    "status": "可用"
  },
  {
    "key": "多多资源2",
    "name": "多多资源2(优)",
    "type": 1,
    "api": "https://a.7dyu.cn/api.php/provide/vod/at/xml/",
    "searchable": 1,
    "quickSearch": 1,
    "isActive": true,
    "group": "导入",
    "id": 81,
    "reverseOrder": false,
    "status": "可用"
  },
  {
    "key": "奈飞云",
    "name": "奈飞云(优)",
    "type": 1,
    "api": "http://45.125.46.41:4433/api.php/provide/vod/at/xml/",
    "searchable": 1,
    "quickSearch": 1,
    "isActive": true,
    "group": "导入",
    "id": 82,
    "reverseOrder": false,
    "status": "可用"
  },
  {
    "key": "奈菲迷",
    "name": "奈菲迷(优)",
    "type": 1,
    "api": "https://app.netflixmi.com/ruifenglb_api.php/provide/vod/at/xml/",
    "searchable": 1,
    "quickSearch": 1,
    "isActive": true,
    "group": "导入",
    "id": 83,
    "reverseOrder": false,
    "status": "可用"
  },
  {
    "key": "旋风云",
    "name": "旋风云(优)",
    "type": 1,
    "api": "http://appimg.ssxmall.cn/api.php/provide/vod/at/xml/",
    "playUrl": "https://jx.58g8.com/1/?url=",
    "searchable": 1,
    "quickSearch": 1,
    "isActive": true,
    "group": "导入",
    "id": 84,
    "reverseOrder": false,
    "status": "可用"
  },
  {
    "key": "789盘",
    "name": "789盘(优)",
    "type": 1,
    "api": "https://www.rrvipw.com/api.php/provide/vod/at/xml/",
    "searchable": 1,
    "quickSearch": 1,
    "isActive": true,
    "group": "导入",
    "id": 85,
    "reverseOrder": false,
    "status": "可用"
  },
  {
    "key": "看看资源",
    "name": "看看资源(优)",
    "type": 1,
    "api": "https://zy.hikan.xyz/api.php/provide/vod/at/xml/",
    "searchable": 1,
    "quickSearch": 1,
    "isActive": true,
    "group": "导入",
    "id": 86,
    "reverseOrder": false,
    "status": "可用"
  },
  {
    "key": "U酷资源",
    "name": "U酷资源(优)",
    "type": 1,
    "api": "https://api.ukuapi.com/api.php/provide/vod/at/xml/",
    "searchable": 1,
    "quickSearch": 1,
    "isActive": true,
    "group": "导入",
    "id": 87,
    "reverseOrder": false,
    "status": "可用"
  },
  {
    "key": "南国影源",
    "name": "南国影源(切)",
    "type": 1,
    "api": "http://api.nguonphim.tv/api.php/provide/vod/at/xml/",
    "searchable": 1,
    "quickSearch": 1,
    "isActive": true,
    "group": "导入",
    "id": 88,
    "reverseOrder": false,
    "status": "可用"
  },
  {
    "key": "乐多资源",
    "name": "乐多资源(切)",
    "type": 0,
    "api": "http://cj.leduocaiji.com/inc/api.php",
    "playUrl": "json:https://api.leduotv.com/wp-api/getvodurl.php?vid=",
    "searchable": 1,
    "quickSearch": 1,
    "isActive": true,
    "group": "导入",
    "id": 89,
    "reverseOrder": false,
    "status": "可用"
  },
  {
    "key": "天空资源",
    "name": "天空资源(切)",
    "type": 1,
    "api": "https://api.tiankongapi.com/api.php/provide/vod/at/xml/",
    "searchable": 1,
    "quickSearch": 1,
    "isActive": true,
    "group": "导入",
    "id": 90,
    "reverseOrder": false,
    "status": "可用"
  },
  {
    "key": "百度资源",
    "name": "百度资源(切)",
    "type": 1,
    "api": "https://api.apibdzy.com/api.php/provide/vod/at/xml/",
    "searchable": 1,
    "quickSearch": 1,
    "isActive": true,
    "group": "导入",
    "id": 91,
    "reverseOrder": false,
    "status": "可用"
  },
  {
    "key": "快播资源",
    "name": "快播资源(切)",
    "type": 1,
    "api": "http://www.kuaibozy.com/api.php/provide/vod/at/xml/",
    "searchable": 1,
    "quickSearch": 1,
    "isActive": true,
    "group": "导入",
    "id": 92,
    "reverseOrder": false,
    "status": "可用"
  },
  {
    "key": "鱼乐资源",
    "name": "鱼乐资源(切)",
    "type": 1,
    "api": "https://api.ylzy1.com/api.php/provide/vod/at/xml/",
    "searchable": 1,
    "quickSearch": 1,
    "isActive": true,
    "group": "导入",
    "id": 93,
    "reverseOrder": false,
    "status": "可用"
  },
  {
    "key": "新浪资源",
    "name": "新浪资源(切)",
    "type": 1,
    "api": "http://api.xinlangapi.com/xinlangapi.php/provide/vod/at/xml/",
    "searchable": 1,
    "quickSearch": 1,
    "isActive": true,
    "group": "导入",
    "id": 94,
    "reverseOrder": false,
    "status": "可用"
  },
  {
    "key": "光速资源",
    "name": "光速资源(切)",
    "type": 1,
    "api": "https://api.guangsuapi.com/api.php/provide/vod/at/xml/",
    "searchable": 1,
    "quickSearch": 1,
    "isActive": true,
    "group": "导入",
    "id": 95,
    "reverseOrder": false,
    "status": "可用"
  },
  {
    "key": "飞速资源",
    "name": "飞速资源(切)",
    "type": 1,
    "api": "https://www.feisuzy.com/api.php/provide/vod/at/xml/",
    "searchable": 1,
    "quickSearch": 1,
    "isActive": true,
    "group": "导入",
    "id": 96,
    "reverseOrder": false,
    "status": "可用"
  },
  {
    "key": "闪电资源",
    "name": "闪电资源(切)",
    "type": 1,
    "api": "http://sdzyapi.com/api.php/provide/vod/at/xml/",
    "searchable": 1,
    "quickSearch": 1,
    "isActive": true,
    "group": "导入",
    "id": 97,
    "reverseOrder": false,
    "status": "可用"
  },
  {
    "key": "速更资源",
    "name": "速更资源(切)",
    "type": 1,
    "api": "https://sugengzy.cn/api.php/provide/vod/at/xml/",
    "searchable": 1,
    "quickSearch": 1,
    "isActive": true,
    "group": "导入",
    "id": 98,
    "reverseOrder": false,
    "status": "可用"
  },
  {
    "key": "酷点资源",
    "name": "酷点资源(切)",
    "type": 1,
    "api": "https://kudianzy.com/api.php/provide/vod/at/xml/",
    "searchable": 1,
    "quickSearch": 1,
    "isActive": true,
    "group": "导入",
    "id": 99,
    "reverseOrder": false,
    "status": "可用"
  },
  {
    "key": "易看资源",
    "name": "易看资源(切)",
    "type": 1,
    "api": "https://api.yikanapi.com/api.php/provide/vod/at/xml/",
    "searchable": 1,
    "quickSearch": 1,
    "isActive": true,
    "group": "导入",
    "id": 100,
    "reverseOrder": false,
    "status": "可用"
  },
  {
    "key": "想看资源",
    "name": "想看资源(切)",
    "type": 1,
    "api": "https://m3u8.xiangkanapi.com/api.php/provide/vod/at/xml/",
    "searchable": 1,
    "quickSearch": 1,
    "isActive": true,
    "group": "导入",
    "id": 101,
    "reverseOrder": false,
    "status": "可用"
  },
  {
    "key": "樱花资源",
    "name": "樱花资源(切)",
    "type": 1,
    "api": "https://m3u8.apiyhzy.com/api.php/provide/vod/at/xml/",
    "searchable": 1,
    "quickSearch": 1,
    "isActive": true,
    "group": "导入",
    "id": 102,
    "reverseOrder": false,
    "status": "可用"
  },
  {
    "key": "红牛资源",
    "name": "红牛资源(切)",
    "type": 1,
    "api": "https://www.hongniuzy2.com/api.php/provide/vod/at/xml/",
    "searchable": 1,
    "quickSearch": 1,
    "isActive": true,
    "group": "导入",
    "id": 103,
    "reverseOrder": false,
    "status": "可用"
  },
  {
    "key": "卧龙资源",
    "name": "卧龙资源(切)",
    "type": 1,
    "api": "https://collect.wolongzyw.com/api.php/provide/vod/at/xml/",
    "searchable": 1,
    "quickSearch": 1,
    "isActive": true,
    "group": "导入",
    "id": 104,
    "reverseOrder": false,
    "status": "可用"
  },
  {
    "key": "番茄资源",
    "name": "番茄资源(切)",
    "type": 1,
    "api": "http://api.fqzy.cc/api.php/provide/vod/at/xml/",
    "playUrl": "https://dp.fqplayer.com/dplayer/?url=",
    "searchable": 1,
    "quickSearch": 1,
    "isActive": true,
    "group": "导入",
    "id": 105,
    "reverseOrder": false,
    "status": "可用"
  },
  {
    "key": "量子资源",
    "name": "量子资源(切)",
    "type": 1,
    "api": "http://cj.lziapi.com/api.php/provide/vod/at/xml/",
    "searchable": 1,
    "quickSearch": 1,
    "isActive": true,
    "group": "导入",
    "id": 106,
    "reverseOrder": false,
    "status": "可用"
  },
  {
    "key": "FOX资源",
    "name": "FOX资源(切)",
    "type": 1,
    "api": "https://api.foxzyapi.com/api.php/provide/vod/at/xml/",
    "searchable": 1,
    "quickSearch": 1,
    "isActive": true,
    "group": "导入",
    "id": 107,
    "reverseOrder": false,
    "status": "可用"
  },
  {
    "key": "多多资源",
    "name": "多多资源(切)",
    "type": 1,
    "api": "https://www.ddzyz1.com/api.php/provide/vod/at/xml/",
    "searchable": 1,
    "quickSearch": 1,
    "isActive": true,
    "group": "导入",
    "id": 108,
    "reverseOrder": false,
    "status": "可用"
  },
  {
    "key": "松鼠资源",
    "name": "松鼠资源(切)",
    "type": 1,
    "api": "https://m3u8.songshuzy.com/api.php/provide/vod/at/xml/",
    "searchable": 1,
    "quickSearch": 1,
    "isActive": true,
    "group": "导入",
    "id": 109,
    "reverseOrder": false,
    "status": "可用"
  },
  {
    "key": "快车资源",
    "name": "快车资源(切)",
    "type": 1,
    "api": "https://caiji.kczyapi.com/api.php/provide/vod/at/xml/",
    "searchable": 1,
    "quickSearch": 1,
    "isActive": true,
    "group": "导入",
    "id": 110,
    "reverseOrder": false,
    "status": "可用"
  },
  {
    "key": "TOM资源",
    "name": "TOM资源(切)",
    "type": 1,
    "api": "https://api.tomcaiji.com/api.php/provide/vod/at/xml/",
    "searchable": 1,
    "quickSearch": 1,
    "isActive": true,
    "group": "导入",
    "id": 111,
    "reverseOrder": false,
    "status": "可用"
  },
  {
    "key": "冠军资源",
    "name": "冠军资源(切)",
    "type": 1,
    "api": "https://www.cmpzy.com/api.php/provide/vod/at/xml/",
    "searchable": 1,
    "quickSearch": 1,
    "isActive": true,
    "group": "导入",
    "id": 112,
    "reverseOrder": false,
    "status": "可用"
  },
  {
    "key": "金鹰资源",
    "name": "金鹰资源(切)",
    "type": 1,
    "api": "http://jinyingzy.com/provide/vod/at/xml/",
    "searchable": 1,
    "quickSearch": 1,
    "isActive": true,
    "group": "导入",
    "id": 113,
    "reverseOrder": false,
    "status": "可用"
  },
  {
    "key": "阿远采集",
    "name": "阿远采集(官)",
    "type": 1,
    "api": "https://www.cjzy.xyz:8888/api.php/provide/vod/at/xml/",
    "searchable": 1,
    "quickSearch": 1,
    "isActive": true,
    "group": "导入",
    "id": 114,
    "reverseOrder": false,
    "status": "可用"
  },
  {
    "key": "小猫咪",
    "name": "小猫咪(官)",
    "type": 1,
    "api": "http://zy.xiaomaomi.cc/api.php/provide/vod/at/xml/",
    "playUrl": "http://xiaomaomi.cc/player/?url=",
    "searchable": 1,
    "quickSearch": 1,
    "isActive": true,
    "group": "导入",
    "id": 115,
    "reverseOrder": false,
    "status": "可用"
  },
  {
    "key": "木子看剧",
    "name": "木子看剧(官)",
    "type": 1,
    "api": "https://mzkj.maccms.cf/api.php/provide/vod/at/xml/",
    "searchable": 1,
    "quickSearch": 1,
    "isActive": true,
    "group": "导入",
    "id": 116,
    "reverseOrder": false,
    "status": "可用"
  },
  {
    "key": "忆梦",
    "name": "忆梦(官)",
    "type": 1,
    "api": "http://anltv.cn/api.php/provide/vod/at/xml/",
    "searchable": 1,
    "quickSearch": 1,
    "isActive": true,
    "group": "导入",
    "id": 117,
    "reverseOrder": false,
    "status": "可用"
  },
  {
    "key": "看猫",
    "name": "看猫(官)",
    "type": 1,
    "api": "http://124.222.83.15:88/api.php/provide/vod/at/xml/",
    "searchable": 1,
    "quickSearch": 1,
    "isActive": true,
    "group": "导入",
    "id": 118,
    "reverseOrder": false,
    "status": "可用"
  },
  {
    "key": "云海官采",
    "name": "云海官采(官)",
    "type": 1,
    "api": "http://101.34.7.151:600/api.php/provide/vod/at/xml/",
    "searchable": 1,
    "quickSearch": 1,
    "isActive": true,
    "group": "导入",
    "id": 119,
    "reverseOrder": false,
    "status": "可用"
  },
  {
    "key": "英皇官采",
    "name": "英皇官采(官)",
    "type": 0,
    "api": "https://apicdn.vipm3u8.com/xml",
    "playUrl": "https://player.cdn.ormanjiaju.com/player?token=4732bUERfVb60lWNSLrsd5-2s1r70KeA89C3VwrGYYdByboQT9o4OzxIr5-8/cX9-sO6&vid=",
    "searchable": 1,
    "quickSearch": 1,
    "isActive": true,
    "group": "导入",
    "id": 120,
    "reverseOrder": false,
    "status": "可用"
  },
  {
    "key": "诺讯资源",
    "name": "诺讯资源(官)",
    "type": 1,
    "api": "http://caiji.nxflv.com/api.php/provide/vod/at/xml/",
    "playUrl": "https://www.nxflv.com/?url=",
    "searchable": 1,
    "quickSearch": 1,
    "isActive": true,
    "group": "导入",
    "id": 121,
    "reverseOrder": false,
    "status": "可用"
  },
  {
    "key": "土狗360",
    "name": "土狗360(官)",
    "type": 1,
    "api": "http://360.tgzy.cc/api.php/provide/vod/at/xml/",
    "searchable": 1,
    "quickSearch": 1,
    "isActive": true,
    "group": "导入",
    "id": 122,
    "reverseOrder": false,
    "status": "可用"
  },
  {
    "key": "土狗2345",
    "name": "土狗2345(官)",
    "type": 1,
    "api": "http://2345.tgzy.cc/api.php/provide/vod/at/xml/",
    "searchable": 1,
    "quickSearch": 1,
    "isActive": true,
    "group": "导入",
    "id": 123,
    "reverseOrder": false,
    "status": "可用"
  },
  {
    "key": "八戒官采",
    "name": "八戒官采(官)",
    "type": 1,
    "api": "https://www.bajiezy.xyz/api.php/provide/vod/at/xml/",
    "searchable": 1,
    "quickSearch": 1,
    "isActive": true,
    "group": "导入",
    "id": 124,
    "reverseOrder": false,
    "status": "可用"
  },
  {
    "key": "M3U8.TV资源",
    "name": "M3U8.TV资源(官)",
    "type": 1,
    "api": "http://www.zycaiji.net:7788/api.php/provide/vod/at/xml/",
    "searchable": 1,
    "quickSearch": 1,
    "isActive": true,
    "group": "导入",
    "id": 125,
    "reverseOrder": false,
    "status": "可用"
  },
  {
    "key": "天堂资源",
    "name": "天堂资源(官)",
    "type": 1,
    "api": "http://vipmv.cc/api.php/provide/vod/at/xml/",
    "searchable": 1,
    "quickSearch": 1,
    "isActive": true,
    "group": "导入",
    "id": 126,
    "reverseOrder": false,
    "status": "可用"
  },
  {
    "key": "8090资源",
    "name": "8090资源(官)",
    "type": 1,
    "api": "http://zy.yilans.net:8090/api.php/provide/vod/at/xml/",
    "searchable": 1,
    "quickSearch": 1,
    "isActive": true,
    "group": "导入",
    "id": 127,
    "reverseOrder": false,
    "status": "可用"
  }
]
